time_stamp,286,287,288,289,312,313,316,317,318,319,324,346,362,366,368,469,470,471,472,473,474,486,381,382,383,384,385,386,393,405,406,411,413,414,415,416,417,418,419,420,421,422,449,451,244,263,285,sum,nop
2016-01-03 00:00:00+00:00,120.29166666666667,18.027777777777775,4.720833333333334,0.0,0.0,0.0,0.0,0.0,0.0,0.0,24.96805555555555,368.8333333333333,9.791666666666666,60.763888888888886,0.0,1.4230555555555557,1.3525,65.39527777777778,84.28777777777779,83.41708333333332,0.0,,0.0,0.0,0.0,0.0,0.0,0.0,0.0,0.0,0.9166666666666666,0.0,0.0,31.552777777777774,0.0,247.6791666666668,126.52777777777777,126.25,138.06944444444446,138.83333333333334,0.0,0.0,0.0,131.375,0.0,114.5388888888889,11.218055555555555,41.52682669082125,46.0
2016-01-10 00:00:00+00:00,117.28571428571429,56.88630952380952,62.24880952380952,250.68809523809523,0.0,0.0,0.0,0.0,0.0,1.5595238095238095,165.20178571428568,395.73809523809524,65.85714285714286,72.7202380952381,0.0,8.029761904761907,0.0,65.58803571428567,91.07970238095238,96.42404761904758,13.29404761904762,,0.0,0.0,62.48809523809523,87.13285714285715,0.0,59.08970238095238,0.07589285714285716,12.023928571428574,170.875,0.0,30.927976190476187,67.96666666666667,0.0,247.27678571428572,163.08333333333334,161.82738095238096,146.35119047619048,151.75595238095238,0.0,0.0,0.0,129.57738095238096,0.0,145.1720238095238,15.922619047619046,67.69887163561079,46.0
2016-01-17 00:00:00+00:00,117.35714285714286,52.079166666666666,49.89285714285715,256.36607142857144,0.0,0.0,0.0,0.0,0.0,0.0,159.17083333333332,410.45238095238096,92.80357142857143,64.60714285714286,0.0,30.995178571428557,1.217797619047619,60.173214285714245,104.35220238095232,104.89101190476183,289.8625000000001,,0.0,0.0,8.844642857142857,0.0,15.004047619047618,19.98470238095238,0.0,0.0,138.2797619047619,0.0,87.55654761904762,18.42083333333333,0.0,233.72976190476206,130.5297619047619,130.51785714285714,158.67857142857142,170.69642857142858,129.3488095238096,131.6440476190476,0.0,140.98214285714286,0.0,129.97440476190482,16.003571428571423,75.09602096273294,46.0
2016-01-24 00:00:00+00:00,121.63690476190476,215.82440476190473,175.7494047619047,546.4375,0.0,0.0,0.13333333333333336,0.9648809523809525,0.5083333333333334,21.954166666666662,245.72142857142842,413.9583333333333,104.60714285714286,73.44642857142857,0.0,66.48517857142855,42.666250000000005,54.0110714285714,107.79505952380946,106.91839285714286,146.51845238095234,,0.0,0.0,416.0683333333332,305.5351785714286,73.50226190476192,110.22702380952379,0.0,35.864702380952366,191.71428571428572,366.0809523809523,236.01190476190467,58.30357142857145,7.868452380952381,253.57499999999987,179.1845238095238,178.6547619047619,162.19642857142858,173.54761904761904,212.2809523809524,200.33571428571418,0.0,139.63095238095238,0.0,166.0785714285714,28.95952380952381,129.15124741200827,46.0
2016-01-31 00:00:00+00:00,116.83928571428571,21.922619047619047,7.219642857142857,201.10833333333335,0.0,0.0,0.0,0.0,0.0,0.0,63.793452380952374,316.14285714285717,15.607142857142858,56.029761904761905,0.0,6.244345238095238,10.425595238095239,50.54672619047621,85.09267857142858,57.992321428571444,20.03035714285714,,0.0,12.068690476190477,0.0,0.0,60.192797619047624,69.41208333333333,25.942083333333336,0.0,139.73214285714286,0.0,31.140476190476193,72.46428571428575,5.2178571428571425,231.92559523809524,119.42857142857143,119.35119047619048,154.4404761904762,165.95238095238096,25.321428571428573,0.0,0.0,144.42261904761904,0.0,74.89523809523814,14.785029940119768,54.256840493443796,45.99404761904762
2016-02-07 00:00:00+00:00,117.0297619047619,12.566666666666666,14.770238095238096,65.40416666666667,0.0,0.0,0.0,0.0,0.0,0.0,58.832142857142856,271.7202380952381,27.053571428571427,57.541666666666664,0.0,2.755238095238095,11.105059523809523,46.985416666666644,62.172261904761875,68.32511904761905,59.0797619047619,,0.0,13.462023809523808,0.0,0.0,46.55636904761904,0.0,69.34654761904761,0.0,120.08333333333333,0.0,0.0,79.09761904761905,0.0,226.4452380952382,130.75,130.70238095238096,156.55357142857142,168.33333333333334,0.0,0.0,0.0,144.29761904761904,0.0,64.2035714285714,15.120833333333326,48.702038043478275,46.0
2016-02-14 00:00:00+00:00,116.44642857142857,22.07857142857143,21.84226190476191,225.1892857142857,0.0,0.0,0.0,0.0,0.0,0.0,141.33154761904757,332.51190476190476,37.267857142857146,58.976190476190474,0.0,3.9017261904761913,2.6289285714285713,45.339940476190456,56.40089285714285,77.21809523809523,114.21190476190478,,0.0,3.652261904761905,0.0,0.0,17.50214285714286,0.0,20.43523809523809,0.0,123.70238095238095,0.0,0.0,84.43214285714282,0.0,228.82023809523815,146.47619047619048,146.33333333333334,157.32738095238096,169.29761904761904,0.0,0.0,0.0,130.1845238095238,0.0,82.95773809523811,15.19107142857143,56.12299560041408,46.0
2016-02-21 00:00:00+00:00,117.01190476190476,75.67797619047617,68.9434523809524,378.89642857142854,0.0,0.0,0.0,0.0,0.0,6.176190476190476,176.9761904761906,331.3988095238095,64.14880952380952,60.101190476190474,0.0,19.351011904761908,22.33511904761905,50.20005952380949,68.68369047619045,92.80053571428569,189.66369047619042,,0.0656547619047619,0.0,0.0,21.184464285714284,0.0,1.239404761904762,0.0,0.0,155.35119047619048,0.0,30.084523809523812,69.0547619047619,0.0,239.14464285714297,164.58928571428572,164.3154761904762,158.39285714285714,170.36904761904762,94.75238095238093,0.0,0.0,102.36904761904762,0.0,95.2744047619047,14.340476190476195,69.6281017080745,46.0
2016-02-28 00:00:00+00:00,116.68452380952381,16.414285714285718,14.805952380952384,224.5267857142858,0.0,0.0,0.0,0.0,0.0,2.5785714285714283,141.98749999999998,392.5238095238095,50.982142857142854,59.94642857142857,0.0,15.882619047619048,10.968214285714286,43.85678571428571,22.342857142857138,94.15517857142851,250.85238095238088,,0.0008928571428571428,0.0,0.0,0.0,0.0,39.168273809523804,0.0,0.0,171.48214285714286,0.0,0.0,27.410714285714285,0.0,243.03928571428582,164.58333333333334,164.35119047619048,157.73214285714286,169.8452380952381,68.61250000000003,0.0,0.0,131.10119047619048,0.0,94.38392857142856,15.135119047619039,63.159869306418244,46.0
2016-03-06 00:00:00+00:00,116.05952380952381,2.8166666666666664,31.404761904761916,80.21369047619048,0.0,0.0,0.0,0.0,0.0,1.2005952380952383,132.61071428571427,404.76190476190476,53.81547619047619,58.18452380952381,0.0,28.302380952380954,16.557499999999997,50.37845238095238,27.110357142857147,98.76916666666664,291.3458333333333,,0.12202380952380952,0.0,0.0,0.0,0.0,30.368630952380954,0.0,0.0,172.13095238095238,0.0,0.0,30.81190476190476,0.0,241.30892857142868,169.91666666666666,168.32738095238096,156.76190476190476,168.58333333333334,0.0,0.0,0.0,139.51785714285714,0.0,114.85416666666677,14.501190476190468,60.88557582815733,46.0
2016-03-13 00:00:00+00:00,116.60714285714286,53.56011904761906,51.958333333333336,258.7047619047619,0.0,0.0,0.0,0.0,0.0,6.36547619047619,220.99642857142845,407.5595238095238,40.38095238095238,58.601190476190474,0.0,5.947916666666665,1.384642857142857,58.75107142857141,93.98095238095232,64.59779761904761,314.6190476190476,,0.7830357142857144,0.0,0.0,0.0,0.0,0.14154761904761906,0.0,0.00029761904761904765,162.8095238095238,0.0,68.24940476190477,31.048809523809528,0.0,244.58214285714283,162.8154761904762,162.75,157.4702380952381,169.53571428571428,68.7357142857143,0.0,0.0,129.32738095238096,0.0,109.37857142857142,14.499404761904765,70.35092650103519,46.0
2016-03-20 00:00:00+00:00,116.60714285714286,38.89226190476192,46.53630952380951,125.8464285714286,0.0,0.0,0.0,0.0,0.0,1.8845238095238097,222.59464285714287,381.5892857142857,48.56547619047619,61.0,0.0,0.12172619047619047,11.190476190476192,47.09148809523807,62.31696428571428,69.92422619047618,399.3071428571427,,0.0,0.0,0.0,0.0,0.0,0.09244047619047618,0.0,14.247380952380958,178.22619047619048,0.0,0.0,2.2386904761904765,0.0,242.61071428571427,167.51785714285714,167.42261904761904,156.32738095238096,168.23809523809524,0.0,0.0,0.0,108.625,0.0,104.96547619047621,14.652976190476203,64.318106884058,46.0
2016-03-27 00:00:00+00:00,115.23809523809524,30.27797619047619,32.57499999999999,287.66071428571433,0.0,0.0,0.0,0.0,0.0,0.0,200.60654761904763,334.4345238095238,10.648809523809524,31.172619047619047,0.0,0.0,2.7620238095238094,40.01660714285714,75.24964285714283,45.556785714285716,233.01071428571439,,0.0,0.0,0.0,0.0,0.0,18.961726190476195,0.0,0.0,101.04761904761905,0.0,0.0,28.823809523809526,0.0,229.67202380952386,161.0952380952381,161.10119047619048,154.00595238095238,165.25595238095238,0.0,0.0,0.0,29.446428571428573,0.0,86.10357142857143,11.570833333333335,56.22379140786748,46.0
2016-04-03 00:00:00+00:00,112.80357142857143,35.75238095238095,37.4202380952381,265.3130952380952,0.0,0.0,0.0,0.0,0.0,0.0,139.0738095238096,238.125,2.5297619047619047,0.0,0.0,0.0,0.0,29.836267605633804,52.97464285714283,16.378452380952385,251.89345238095245,,0.0,0.0,0.0,0.0,0.0,0.0,0.0,0.0,0.011904761904761904,0.0,0.0,0.0,0.0,202.34821428571425,156.60119047619048,156.1904761904762,154.0,165.74404761904762,0.0,0.0,0.0,62.398809523809526,0.0,97.62321428571428,10.336904761904762,47.54480115596965,45.845238095238095
2016-04-10 00:00:00+00:00,106.41071428571429,36.45595238095237,33.04345238095238,269.3619047619047,0.0,0.0,0.0,0.0,0.0,0.0,183.4880952380952,133.71428571428572,5.410714285714286,0.0,0.0,0.0,0.0,,50.11797619047619,42.50845238095238,293.8523809523809,,0.0,0.0,0.0,0.0,0.0,0.0,0.051309523809523805,0.0,0.0,0.0,0.0,15.929761904761904,0.0,155.33154761904763,48.61904761904762,185.29761904761904,152.3095238095238,163.8452380952381,0.0,0.0,0.0,121.86904761904762,0.0,67.87321428571425,10.969642857142864,46.14355291005291,45.0
2016-04-17 00:00:00+00:00,39.01190476190476,60.44583333333332,65.97440476190476,423.05238095238104,0.0,0.0,0.0,0.0,0.0,0.0,169.08630952380952,174.0654761904762,6.696428571428571,0.0,0.0,0.0,0.7659523809523809,,53.628988095238086,44.99910714285715,309.49642857142857,,0.0,0.0,0.0,0.0,0.0,0.4430952380952381,0.003154761904761905,0.0,93.66071428571429,0.0,0.0,22.96785714285714,0.0,139.8755952380953,92.61309523809524,148.91666666666666,150.97619047619048,161.0952380952381,0.0,115.64345238095235,0.0,145.11309523809524,0.0,64.38392857142856,18.10833333333332,55.57830291005292,45.0
2016-04-24 00:00:00+00:00,117.0952380952381,11.125595238095238,0.7172619047619048,81.02499999999999,0.0,0.0,0.0,0.0,0.0,0.0,162.08928571428567,187.70833333333334,0.8928571428571429,0.0,0.0,1.124642857142857,3.746428571428572,,57.68184523809526,32.41071428571428,360.5226190476192,,0.68875,0.0,0.005000000000000001,0.0,0.0,0.0,0.04732142857142857,0.0,123.28571428571429,0.0,0.0,1.188095238095238,0.0,183.7095238095239,131.95833333333334,132.7797619047619,153.54166666666666,165.41071428571428,0.0,0.0,0.0,80.125,0.0,82.16309523809525,15.419642857142847,46.365832010582004,45.0
2016-05-01 00:00:00+00:00,114.69047619047619,22.361904761904764,1.4172619047619048,0.0,0.0,0.0,0.0,0.0,0.0,0.0,139.7755952380953,162.4404761904762,9.547619047619047,0.0,0.0,0.49678571428571433,0.45053571428571426,,59.27517857142857,50.6510119047619,314.76011904761896,,2.8774404761904764,0.0,0.0,0.0,0.0,0.8583333333333334,0.0,0.0,145.26785714285714,0.0,0.0,22.566071428571426,0.0,157.2061309523811,147.5952380952381,147.20238095238096,154.9345238095238,167.00595238095238,0.0,0.0,0.0,138.44642857142858,0.0,96.98392857142852,28.66488095238096,46.34391402116402,45.0
2016-05-08 00:00:00+00:00,113.85714285714286,7.440476190476191,4.953571428571429,0.0,0.0,0.0,0.0,0.0,0.0,0.0,73.55,124.54166666666667,1.494047619047619,0.0,0.0,1.3914880952380952,9.149702380952379,,0.9657142857142857,27.260059523809527,175.52857142857144,,0.3943452380952381,0.0,0.006130952380952383,0.0,0.0,0.0,0.03559523809523811,0.0,97.10714285714286,0.0,0.0,0.0,0.0,131.63994047619056,126.88095238095238,126.31547619047619,145.32738095238096,155.22619047619048,0.0,0.0,0.0,136.4702380952381,0.0,24.94107142857144,22.009523809523795,33.477476190476196,45.0
2016-05-15 00:00:00+00:00,110.96428571428571,18.058928571428574,14.304761904761907,162.48333333333335,0.0,0.0,0.0,0.0,0.0,0.0,138.76607142857148,92.24702380952381,3.1532738095238093,18.34672619047619,0.0,0.0,4.933392857142857,,25.117321428571422,21.342797619047616,206.27857142857135,,1.204345238095238,0.0,0.014999999999999998,0.0,0.0,0.08797619047619047,0.04970238095238097,0.0,0.0,0.0,0.0,0.0,0.0,93.62386904761902,162.80357142857142,162.17857142857142,139.0654761904762,41.142857142857146,0.05892857142857143,0.0,0.0,111.625,0.0,43.66964285714287,9.910238095238093,35.14292592592593,45.0
2016-05-22 00:00:00+00:00,113.79166666666667,53.960119047619045,52.64642857142855,420.8261904761905,0.0,0.0,0.0,0.0,0.0,0.0,131.8988095238095,120.63988095238095,10.601190476190476,17.157738095238095,0.0,0.0,0.0,,28.6922619047619,0.0,218.60714285714278,,0.36124999999999996,0.0,0.0,0.0,0.0,0.07529761904761904,0.0,0.0,97.73214285714286,0.0,0.0,0.0,0.0,115.62238095238098,190.26190476190476,187.88690476190476,55.904761904761905,71.47619047619048,0.0,0.0,0.0,120.51785714285714,0.0,38.49940476190478,27.40648809523808,46.10146693121695,45.0
2016-05-29 00:00:00+00:00,111.38690476190476,36.40416666666666,26.32976190476191,315.6761904761905,0.0,0.0,0.0,0.0,0.0,0.0,158.4565476190476,92.61160714285714,8.086309523809524,38.748511904761905,0.0,0.0,0.0,,14.545892857142864,15.812857142857148,345.3232142857143,,0.0,0.0,0.013035714285714282,0.0,0.0,0.0,0.0338095238095238,0.0,106.32738095238095,0.0,0.0,0.0,0.0,99.18142857142854,199.51190476190476,194.69642857142858,0.0,28.50595238095238,117.56035714285714,120.51285714285716,0.0,126.21428571428571,0.0,33.22023809523809,19.39755952380952,49.07904894179895,45.0
2016-06-05 00:00:00+00:00,111.08928571428571,32.91904761904763,33.74583333333334,194.24047619047622,0.0,0.0,0.0,0.0,0.0,0.0,131.16845238095237,59.739583333333336,4.278273809523809,26.205357142857142,0.0,0.0,2.127321428571429,,28.22470238095238,10.076011904761907,318.0101190476192,,1.4941666666666666,0.0,69.17357142857142,0.0,0.0,0.0,23.76375,0.0,49.916666666666664,0.0,0.0,0.0,0.0,101.52297619047613,172.58928571428572,175.92857142857142,0.0,156.67261904761904,0.18779761904761905,0.0004761904761904762,0.0,118.61309523809524,0.0,1.643452380952381,0.0,40.51846428571427,45.0
2016-06-12 00:00:00+00:00,110.19642857142857,2.8392857142857144,2.8583333333333334,66.58928571428574,0.0,0.0,0.0,0.0,0.0,0.0,153.85892857142855,0.0,12.279761904761905,0.0,0.0,0.1436309523809524,0.0,,14.261428571428578,17.29154761904762,310.8738095238096,,0.0,0.0,0.0,0.07553571428571426,0.0,0.0,0.028511904761904756,0.0,0.0,0.0,0.0,0.0,0.0,89.37982142857138,175.88095238095238,174.74404761904762,0.0,156.9702380952381,0.0,0.0,0.0,122.00595238095238,0.0,1.0119047619047619,0.0,31.361986772486766,45.0
2016-06-19 00:00:00+00:00,110.61904761904762,26.655952380952385,29.163095238095234,281.59940476190485,0.0,0.0,0.0,0.0,0.0,0.0,151.47619047619048,0.0,25.577380952380953,0.0,0.0,2.6982738095238097,1.7345833333333336,32.45,32.462857142857146,64.84654761904763,317.7148809523809,,1.8579761904761904,0.0,0.0,0.0,0.0,0.5514285714285714,0.0,0.0,67.92261904761905,0.0,0.0,0.0,0.0,96.96898809523807,181.83333333333334,179.92261904761904,0.0,160.02380952380952,0.0,0.0,0.0,131.5952380952381,0.0,12.941666666666666,0.0,41.740354439843614,45.01190476190476
2016-06-26 00:00:00+00:00,75.50059523809526,21.83928571428571,5.276190476190476,82.84523809523809,0.0,0.0,0.0,0.0,0.0,0.0,182.0988095238096,0.0,33.56845238095238,0.0,0.0,0.8701785714285715,29.421130952380956,47.86660714285714,51.931190476190466,64.3730357142857,237.99404761904765,,1.1692261904761903,0.0,0.0,0.0,0.0,0.13291666666666666,0.0,0.0,72.30357142857143,0.0,0.0,0.0,0.0,97.51315476190473,180.5654761904762,178.39880952380952,0.0,155.39285714285714,0.0,0.0,0.0,124.5297619047619,0.0,8.008333333333333,0.0,35.90432324016561,46.0
2016-07-03 00:00:00+00:00,26.991666666666646,16.155952380952378,8.632142857142858,146.8303571428571,0.0,0.0,0.0,0.0,0.0,0.35357142857142854,140.30833333333334,0.0,28.546130952380953,8.300595238095237,0.0,14.04803571428571,6.936904761904761,44.47119047619048,44.15345238095237,62.75815476190472,292.8089285714287,,1.602857142857143,0.0,0.0,0.0,0.0,0.11553571428571428,0.0,0.0,0.0,0.0,0.0,0.0,0.0,91.95357142857145,182.32738095238096,180.54761904761904,0.0,156.8095238095238,0.0,0.0,0.0,121.04166666666667,0.0,1.0029761904761905,0.0,34.27601190476192,46.0
2016-07-10 00:00:00+00:00,26.729761904761908,8.760714285714284,9.313690476190475,79.84880952380954,0.0,0.0,0.0,0.0,0.0,0.0,102.62321428571431,0.0,24.489583333333332,0.0,0.0,8.471785714285717,14.508392857142857,46.45916666666666,46.549702380952354,64.28482142857142,236.5482142857144,,6.940714285714286,0.0,0.0,0.0,0.0,1.0720833333333335,0.0,0.0,0.0,0.0,0.0,0.0,0.0,75.18226190476192,193.83928571428572,190.10119047619048,0.0,154.98809523809524,0.0,0.0,0.0,111.08928571428571,0.0,1.0,0.0,30.495668995859212,46.0
2016-07-17 00:00:00+00:00,27.468452380952385,17.312499999999993,17.196428571428573,77.6529761904762,0.0,0.0,0.0,0.0,0.0,0.0,120.83630952380955,0.0,11.97172619047619,7.822916666666667,0.0,14.015476190476193,27.8085119047619,43.796785714285704,30.54595238095238,76.17458333333332,244.97023809523802,,0.0,22.050238095238097,0.0,0.0,0.0,0.0,0.0,0.0,0.0,0.0,0.0,0.0,0.0,95.19863095238095,193.3832142857143,189.5430357142857,0.011904761904761904,150.74791666666667,0.0,0.0,0.0,92.75,0.0,1.1589285714285713,0.0,31.791667960662515,46.0
2016-07-24 00:00:00+00:00,16.841666666666672,19.29130952380952,21.814107142857143,364.89279761904777,0.0,0.00029761904761904765,0.0,0.0,0.0,0.0,195.36559523809524,0.0,9.383928571428571,36.82142857142857,0.0,0.0,12.410059523809522,33.00327380952382,29.75922619047619,48.03744047619046,356.1095238095238,,1.2388690476190476,5.488690476190477,0.0,58.0944642857143,0.001488095238095238,0.0,0.0,0.0,1.9642857142857142,0.0,0.0,0.0,0.0,113.23666666666665,180.16851190476189,176.62375,131.46107142857142,60.78261904761904,0.14452380952380953,0.0,0.0,115.36309523809524,0.0,1.0,0.0,43.24562370600414,46.0
2016-07-31 00:00:00+00:00,0.0,16.82446428571428,17.008750000000003,413.4230357142857,0.0,0.0,0.007738095238095238,0.013273809523809525,0.0,0.0,186.5758928571429,0.0,16.604166666666668,26.290178571428573,0.0,1.129404761904762,0.0,20.14303571428572,33.93916666666668,16.63345238095238,349.4184523809524,,0.5576190476190476,0.0,0.0,0.0,0.0,0.0,0.0,0.0,61.80952380952381,0.0,0.0,0.23369047619047623,0.0,102.43982142857142,186.66690476190476,182.09607142857143,163.89101190476188,0.0,184.20892857142857,0.0,0.0,116.23809523809524,0.0,1.0,0.0,45.59027562111799,46.0
2016-08-07 00:00:00+00:00,0.0,27.791785714285716,26.285297619047622,501.16238095238094,0.0,0.0,0.0,0.0,0.0,0.0,176.52059523809532,0.0,5.15625,27.25297619047619,0.0,0.16339285714285717,0.0,12.256666666666666,13.737083333333333,17.386369047619052,338.6898214285714,,0.0,0.0,28.06178571428572,0.0,0.0,0.0,0.0,0.0,84.2202380952381,0.0,0.0,2.019821428571428,0.0,89.38136904761905,194.79035714285715,189.45744047619047,33.30452380952381,137.8657738095238,0.0,0.0,0.0,124.68452380952381,0.0,1.0,0.9688690476190475,44.17733307453417,46.0
2016-08-14 00:00:00+00:00,0.0,15.588333333333336,11.36369047619048,230.57994047619053,0.0,0.0,0.0,0.0,0.0,0.0,163.18589285714285,0.0,0.7663690476190477,28.71279761904762,0.0,0.0,0.0,10.533988095238092,5.833095238095238,21.171250000000008,0.0,,0.29095238095238096,0.0,0.0,0.0,0.0,0.0,0.032797619047619055,0.0,75.89880952380952,0.0,0.0,8.419166666666667,0.0,96.48601190476184,199.58333333333334,194.17261904761904,6.184523809523809,160.01785714285714,0.0,0.0,0.0,148.0654761904762,0.0,1.0,0.0,29.954063146997928,46.0
2016-08-21 00:00:00+00:00,0.0,157.52321428571426,91.52940476190474,0.0,0.0,0.0,0.0,0.0,0.0,0.0,217.59148809523828,0.0,14.191964285714286,29.504464285714285,0.0,1.1320238095238093,1.5735714285714286,17.133095238095237,31.908452380952387,14.757678571428576,0.0,,0.8297023809523809,0.0,0.0,0.0,0.0,0.0,0.0,0.0,144.83333333333334,368.2208333333333,248.94642857142858,7.007261904761903,0.0,98.51321428571427,184.92261904761904,182.69642857142858,123.4047619047619,118.89880952380952,185.37672619047623,187.6113095238095,0.0,126.48214285714286,0.0,1.0,0.0,55.55628105590061,46.0
2016-08-28 00:00:00+00:00,6.145833333333333,196.23595238095237,177.4332142857143,558.2027976190473,0.0,0.0,0.0,0.0,0.0,0.5552380952380952,210.72708333333338,0.0,26.729166666666668,45.33184523809524,0.0,1.452142857142857,0.7383333333333334,27.922857142857143,36.90220238095238,34.61226190476191,46.57196428571428,,2.1431547619047624,0.0,0.0,0.0,0.0,0.0,0.0,0.0,154.26785714285714,479.54166666666686,309.1761904761904,19.425595238095234,0.0,93.61023809523806,168.64285714285714,166.29166666666666,127.32142857142857,61.25,241.473511904762,264.2582142857143,0.0,128.19642857142858,0.0,1.0,0.0,77.95999353002071,46.0
2016-09-04 00:00:00+00:00,27.159523809523822,0.3479761904761905,176.90279761904767,548.4152976190474,0.0,0.0,0.0,0.0,0.0,0.0,235.19946428571424,0.0,45.73363095238095,46.0,0.0,1.3714880952380952,0.0,18.162619047619064,50.11035714285714,0.0,356.70732142857145,,5.4730952380952385,0.0,0.0,0.0,0.0,0.0,0.0,0.0,163.38095238095238,369.04166666666663,224.53750000000002,24.79779761904761,0.0,92.71047619047611,190.04166666666666,186.6904761904762,146.14285714285714,0.02976190476190476,239.8479166666666,236.98178571428568,0.0,114.89880952380952,0.0,17.424404761904764,0.0,76.48064440993787,46.0
2016-09-11 00:00:00+00:00,26.607738095238112,178.4319642857144,139.417261904762,792.483928571428,0.0,0.0,0.0,0.0,0.0,0.0,213.04285714285726,1.1651785714285714,42.11309523809524,50.36309523809524,0.0,0.4527380952380953,8.970773809523813,17.520476190476195,49.32011904761904,0.0,372.8336904761907,,1.6311309523809523,0.0,0.0,0.0,0.0,0.18601190476190477,0.020595238095238097,0.0,181.48214285714286,387.1619047619047,354.0684523809524,15.98559523809524,0.0,103.57119047619058,194.38690476190476,2.9345238095238093,164.22619047619048,157.73809523809524,244.44761904761913,246.18315476190477,0.0,127.06547619047619,0.0,31.289285714285704,0.0,89.24133022774323,46.0
2016-09-18 00:00:00+00:00,27.1083333333333,181.42791666666676,171.11839285714282,716.2097619047618,0.7716071428571428,0.00017857142857142857,0.0,0.0,0.0,3.372559523809524,253.78910714285726,78.18303571428571,35.495535714285715,0.10714285714285714,0.0,26.67672619047618,32.74601190476191,0.0,0.0,0.0,507.24666666666684,,6.020178571428572,0.0,0.0,0.0,0.0,1.3865476190476191,0.0,0.0,103.16071428571429,338.7559523809524,382.8720238095238,31.671488095238086,0.0,110.64291666666664,192.54928571428567,0.00017857142857142857,157.48315476190479,156.41053571428571,205.87398809523816,204.30684523809518,0.0,129.21428571428572,0.0,53.8589285714286,0.0,89.3143478260869,46.0
2016-09-25 00:00:00+00:00,28.514285714285705,159.7008928571429,158.17410714285717,730.3369047619044,0.0,0.0,0.0,0.0,0.0,0.6461904761904762,196.13482142857134,151.02232142857142,30.433035714285715,54.885416666666664,0.0,29.52815476190476,37.576190476190476,0.0,0.0,0.0,513.2245238095234,,0.3492857142857143,0.0,0.0,0.0,0.0,0.2268452380952381,0.0013690476190476191,0.0,152.88095238095238,366.9630952380953,342.9136904761905,41.66601190476189,0.0,123.39130952380958,202.42089285714286,0.0,168.82547619047617,163.49517857142854,200.90880952380957,200.95148809523803,0.0,124.125,0.0,52.1875,0.0,91.988777173913,46.0
2016-10-02 00:00:00+00:00,20.63869047619048,140.8297619047619,135.03208333333333,549.6864880952382,0.0,0.0,0.21994047619047621,0.21922619047619046,0.0004761904761904762,9.92113095238095,0.0,123.38541666666667,21.927083333333332,48.20982142857143,0.0,7.111428571428571,21.109821428571436,11.844047619047618,35.45904761904761,6.801011904761904,480.20898809523794,,2.0320833333333335,0.0,0.0,0.0,0.001488095238095238,0.27827380952380953,0.09964285714285724,0.0,116.36904761904762,429.205357142857,255.59464285714287,0.0,0.0,119.30886904761904,185.36863095238095,60.24089285714285,148.85107142857154,138.54446428571438,75.97226190476191,76.40785714285714,0.0,137.39285714285714,0.0,51.342857142857135,0.0,74.12206004140782,46.0
2016-10-09 00:00:00+00:00,29.30416666666663,16.99553571428571,88.80964285714283,688.3961904761903,0.0,0.0,0.0,0.0,0.0,5.541190476190477,0.0,184.19791666666666,23.313988095238095,64.09077380952381,0.0,30.182083333333328,37.96773809523809,63.757976190476214,77.15696428571427,83.90791666666662,542.2910119047616,,0.5400595238095237,0.0,0.0,26.68202380952381,0.0,0.26517857142857143,0.0,0.0,108.68452380952381,267.3827380952381,374.07142857142856,7.311488095238094,0.0,147.59517857142865,184.0910714285714,181.74166666666667,156.58624999999998,148.73958333333334,93.49684523809523,94.89821428571429,0.0,130.0595238095238,0.0,60.911309523809535,37.67636904761904,86.01405538302274,46.0
2016-10-16 00:00:00+00:00,24.85714285714285,100.67297619047622,97.48357142857145,757.978095238095,0.0,0.0,0.0,0.0,0.0,5.947202380952381,189.97720238095238,197.8422619047619,21.94047619047619,2.5148809523809526,0.0,1.8408333333333333,3.6941666666666673,57.21029761904757,89.61226190476191,60.444166666666625,521.1526190476192,,1.1304166666666664,0.0,30.81035714285714,0.0,0.0,0.0,0.0,0.0,160.9404761904762,236.10357142857143,191.98214285714283,23.02845238095238,0.0,163.93517857142862,198.5297619047619,196.95238095238096,168.51785714285714,164.00595238095238,97.91303571428571,97.94220238095238,0.0,162.13095238095238,0.0,64.81369047619044,45.79904761904762,89.95007893374738,46.0
2016-10-23 00:00:00+00:00,29.04166666666666,127.54261904761907,106.53386904761906,806.9940476190475,0.0,0.0,0.0,0.0,0.0,3.787916666666667,249.71773809523825,214.0610119047619,40.73363095238095,0.0,0.0,17.107976190476194,26.037678571428565,53.86226190476189,99.07130952380946,46.539940476190445,566.4477380952384,,0.41636904761904764,0.0,0.0,0.0,0.0,0.35095238095238096,0.0,0.0,195.5654761904762,405.1845238095239,365.81130952380965,40.6694642857143,0.0,160.04148809523798,200.64880952380952,201.2202380952381,175.00595238095238,168.85642857142855,191.2895238095238,192.5988095238096,0.0,150.36904761904762,0.0,113.3220238095238,46.13148809523808,108.58611542443062,46.0
2016-10-30 00:00:00+00:00,28.25773809523808,126.71214285714285,109.50625,538.280476190476,0.0,0.0,0.7851785714285714,0.807797619047619,0.0,4.10577380952381,187.86714285714288,247.63541666666666,23.555059523809526,0.0,0.0,23.74261904761905,0.19303571428571428,52.368809523809496,70.6025595238095,64.92488095238092,555.7884523809522,,0.5705357142857143,0.0,0.0,0.0,0.0,12.233630952380953,0.0017857142857142857,0.0,169.10119047619048,274.2452380952382,265.02261904761895,15.96285714285714,0.0,202.23273809523812,207.51755952380958,205.40821428571422,173.7523214285714,167.92755952380955,152.32654761904763,164.44666666666674,0.0,149.74404761904762,5.455595238095238,98.87559523809526,45.60744047619048,94.46881469979296,46.0
2016-11-06 00:00:00+00:00,29.367857142857105,54.96791666666667,59.43904761904761,0.0,0.0,0.00029761904761904765,0.0,0.0,0.0,0.0,150.83386904761903,357.1979166666667,0.0,63.85565476190476,0.0,11.278154761904762,3.4996428571428573,63.5692857142857,98.93785714285717,76.45107142857142,545.873869047619,,0.8316071428571428,0.0,0.0,0.0,2.9123809523809525,0.0,0.0,0.0,186.05357142857142,116.96785714285713,177.7125,14.843988095238092,0.0,207.30119047619058,202.71565476190474,198.3645238095238,169.61744047619047,164.3222619047619,77.96238095238094,79.86898809523811,0.0,34.541666666666664,0.0,94.39761904761906,46.39738095238094,71.5235533126294,46.0
2016-11-13 00:00:00+00:00,29.396428571428583,81.64892857142857,70.3389880952381,711.2626785714286,0.0,0.0,1.2343452380952382,1.2676785714285712,0.7461309523809524,7.406011904761907,259.76476190476205,402.92559523809524,0.0,71.69345238095238,0.0,32.956726190476175,38.99380952380953,69.7000595238095,102.38779761904763,102.91928571428566,570.3627976190476,,0.0,0.0,0.0,0.0,19.30875,48.50154761904762,3.9827976190476186,0.0,201.33333333333334,470.7714285714284,343.96785714285727,42.93654761904761,0.0,244.4028571428571,206.54761904761904,205.73809523809524,174.17261904761904,169.5595238095238,242.2369047619047,244.14744047619047,0.0,123.32738095238095,0.0,142.8178571428571,46.06160714285711,119.23520962732921,46.0
2016-11-20 00:00:00+00:00,29.138095238095225,49.575416666666655,40.59214285714287,368.62767857142865,0.0,0.0,0.0,0.0,0.0,0.0,164.89261904761912,351.7752976190476,0.0,78.64880952380952,0.0,11.329226190476188,21.936666666666664,67.13148809523811,89.48297619047614,93.53023809523809,389.2100000000002,,0.23232142857142857,0.0,0.0,0.0,9.934642857142856,30.12488095238096,0.021845238095238095,0.0,156.3452380952381,0.0,129.7714285714286,4.667261904761904,0.0,226.3600595238097,188.88690476190476,184.13690476190476,163.02380952380952,161.01190476190476,150.5744047619048,74.98726190476192,0.0,135.02380952380952,0.0,80.94285714285718,31.54815476190477,75.7274857660456,46.0
2016-11-27 00:00:00+00:00,28.89583333333331,79.31535714285714,79.96416666666667,633.1384523809526,0.0,0.00017857142857142857,0.0,0.0,0.0,3.277916666666667,253.28916666666672,381.1875,5.907738095238095,82.45833333333333,0.0,4.815297619047619,16.42613095238095,69.99690476190476,86.12982142857135,90.15660714285711,516.3491071428571,,0.0,13.210535714285713,0.0,0.0,0.0,0.0,0.004821428571428572,0.0,187.76190476190476,213.41666666666663,256.17916666666656,14.951904761904757,0.0,227.6147023809524,197.11761904761903,185.82619047619048,170.65613095238095,166.77875,175.472380952381,178.1680952380952,0.0,124.96428571428571,0.0,81.75357142857139,45.93767857142855,99.37223731884053,46.0
2016-12-04 00:00:00+00:00,29.777380952380934,67.91285714285713,81.4679761904762,570.9570833333332,0.0,0.0005952380952380953,0.0,0.2473809523809524,0.0,1.9030952380952382,256.29238095238094,406.29761904761904,4.584821428571429,77.85416666666667,0.0,16.463809523809523,36.422380952380955,62.40488095238094,97.08964285714279,97.95125000000003,506.1788690476192,,0.0,0.0,0.0,0.0,12.15327380952381,43.933214285714286,0.4574404761904762,0.0,197.46428571428572,0.0,254.04999999999995,7.8466071428571444,0.0,249.72440476190474,197.14714285714285,200.74422619047624,174.84053571428575,172.69220238095238,140.1244642857143,142.90488095238098,0.0,129.3095238095238,0.0,137.13273809523812,60.58744047619042,96.41127329192547,46.0
2016-12-11 00:00:00+00:00,29.745238095238093,127.77875000000002,117.88666666666664,500.40482142857167,0.0,0.0,0.0,0.0,0.0,14.235238095238092,198.84154761904773,377.4434523809524,0.0,79.20238095238095,0.0,29.642261904761902,17.29363095238096,66.59124999999999,93.85517857142857,95.98261904761901,523.7952976190476,0.0,3.542559523809523,0.0,0.0,0.0,77.08726190476189,169.35005952380953,46.71666666666666,0.0,190.66666666666666,208.0827380952381,200.91071428571425,22.602142857142855,0.0,242.13363095238103,198.64023809523803,196.78940476190473,176.6422023809524,118.36696428571429,148.55178571428573,147.23452380952386,0.0,120.875,0.0,125.8785714285714,55.582559523809486,101.75874512686667,46.57738095238095
2016-12-18 00:00:00+00:00,29.577380952380942,210.52708333333334,197.54303571428582,820.9019047619047,0.0,0.0010714285714285715,0.0,0.0,0.0,25.157321428571436,9.525654761904763,402.69642857142856,36.302083333333336,51.02232142857143,0.0,36.074940476190484,41.75023809523807,76.62321428571427,97.19726190476187,99.11684523809524,571.9210119047618,0.0,0.0,0.0,0.0,0.0,55.303095238095224,75.79988095238096,0.01125,0.0,205.77380952380952,524.0380952380954,351.61904761904754,53.19839285714285,0.0,244.80261904761912,203.0297619047619,204.74404761904762,176.91071428571428,172.39285714285714,336.2218452380953,336.20565476190484,0.0,113.36309523809524,0.0,155.22392857142856,52.51761904761903,126.95943642350565,47.0
2016-12-25 00:00:00+00:00,29.676785714285707,142.94333333333336,101.15761904761902,663.9505357142857,0.0,0.0,0.0,0.0,0.0,31.13833333333333,110.63107142857146,380.25892857142856,49.25892857142857,0.0,0.0,28.65113095238096,32.06386904761905,62.4621428571428,77.46988095238096,93.6845238095238,398.3670833333334,0.0,0.0,0.0,34.845595238095235,0.0,78.42095238095236,131.2002976190476,0.0,0.0,159.0952380952381,300.847619047619,213.10833333333335,17.794226190476188,0.0,243.8926190476191,176.3489285714286,176.22940476190476,176.80559523809524,171.84202380952382,212.0011904761906,211.99357142857147,0.0,131.38690476190476,0.0,122.44154761904768,44.38482142857141,102.22027735562313,47.0
2017-01-01 00:00:00+00:00,29.933793103448284,60.33241379310343,22.236482758620685,283.0234482758621,0.0,0.0,0.0,0.0,0.0,0.8142068965517242,132.4602758620689,351.2258620689655,60.24655172413793,40.21206896551724,0.0,1.507655172413793,14.33379310344828,62.97089655172412,79.25765517241379,94.27137931034487,353.5985517241379,0.0,0.6129655172413793,0.0,0.0,0.0,0.0,45.312413793103445,0.16268965517241374,0.0,163.0,175.82068965517243,178.01655172413788,21.436896551724136,0.0,237.18675862068983,189.1793103448276,188.5103448275862,176.95172413793102,172.2344827586207,167.24931034482768,82.6975172413793,0.0,124.52413793103449,0.0,104.76675862068963,51.733724137931034,78.01070614692652,46.98620689655172
