TimeStamps with time zone;Power (FZHertz) in MW
2015-05-01 00:00+02;0.0
2015-05-01 00:15+02;0.0
2015-05-01 00:30+02;0.0
2015-05-01 00:45+02;0.0
2015-05-01 01:00+02;0.0
2015-05-01 01:15+02;0.0
2015-05-01 01:30+02;0.0
2015-05-01 01:45+02;0.0
2015-05-01 02:00+02;0.0
2015-05-01 02:15+02;0.0
2015-05-01 02:30+02;0.0
2015-05-01 02:45+02;0.0
2015-05-01 03:00+02;0.0
2015-05-01 03:15+02;0.0
2015-05-01 03:30+02;0.0
2015-05-01 03:45+02;0.0
2015-05-01 04:00+02;0.0
2015-05-01 04:15+02;0.0
2015-05-01 04:30+02;0.0
2015-05-01 04:45+02;0.0
2015-05-01 05:00+02;0.0
2015-05-01 05:15+02;1.0
2015-05-01 05:30+02;3.0
2015-05-01 05:45+02;24.0
2015-05-01 06:00+02;79.0
2015-05-01 06:15+02;140.0
2015-05-01 06:30+02;266.0
2015-05-01 06:45+02;423.0
2015-05-01 07:00+02;586.0
2015-05-01 07:15+02;768.0
2015-05-01 07:30+02;1045.0
2015-05-01 07:45+02;1283.0
2015-05-01 08:00+02;1617.0
2015-05-01 08:15+02;1961.0
2015-05-01 08:30+02;2313.0
2015-05-01 08:45+02;2586.0
2015-05-01 09:00+02;2798.0
2015-05-01 09:15+02;3051.0
2015-05-01 09:30+02;3201.0
2015-05-01 09:45+02;3456.0
2015-05-01 10:00+02;3637.0
2015-05-01 10:15+02;3717.0
2015-05-01 10:30+02;3799.0
2015-05-01 10:45+02;4034.0
2015-05-01 11:00+02;4079.0
2015-05-01 11:15+02;4124.0
2015-05-01 11:30+02;4054.0
2015-05-01 11:45+02;4069.0
2015-05-01 12:00+02;4014.0
2015-05-01 12:15+02;4185.0
2015-05-01 12:30+02;4085.0
2015-05-01 12:45+02;4314.0
2015-05-01 13:00+02;4210.0
2015-05-01 13:15+02;4272.0
2015-05-01 13:30+02;4199.0
2015-05-01 13:45+02;4200.0
2015-05-01 14:00+02;4229.0
2015-05-01 14:15+02;4099.0
2015-05-01 14:30+02;3980.0
2015-05-01 14:45+02;3910.0
2015-05-01 15:00+02;3798.0
2015-05-01 15:15+02;3852.0
2015-05-01 15:30+02;3665.0
2015-05-01 15:45+02;3575.0
2015-05-01 16:00+02;3528.0
2015-05-01 16:15+02;3143.0
2015-05-01 16:30+02;3014.0
2015-05-01 16:45+02;2707.0
2015-05-01 17:00+02;2456.0
2015-05-01 17:15+02;2170.0
2015-05-01 17:30+02;1892.0
2015-05-01 17:45+02;1670.0
2015-05-01 18:00+02;1494.0
2015-05-01 18:15+02;1262.0
2015-05-01 18:30+02;1073.0
2015-05-01 18:45+02;842.0
2015-05-01 19:00+02;672.0
2015-05-01 19:15+02;484.0
2015-05-01 19:30+02;299.0
2015-05-01 19:45+02;206.0
2015-05-01 20:00+02;130.0
2015-05-01 20:15+02;50.0
2015-05-01 20:30+02;14.0
2015-05-01 20:45+02;0.0
2015-05-01 21:00+02;0.0
2015-05-01 21:15+02;0.0
2015-05-01 21:30+02;0.0
2015-05-01 21:45+02;0.0
2015-05-01 22:00+02;0.0
2015-05-01 22:15+02;0.0
2015-05-01 22:30+02;0.0
2015-05-01 22:45+02;0.0
2015-05-01 23:00+02;0.0
2015-05-01 23:15+02;0.0
2015-05-01 23:30+02;0.0
2015-05-01 23:45+02;0.0
2015-05-02 00:00+02;0.0
2015-05-02 00:15+02;0.0
2015-05-02 00:30+02;0.0
2015-05-02 00:45+02;0.0
2015-05-02 01:00+02;0.0
2015-05-02 01:15+02;0.0
2015-05-02 01:30+02;0.0
2015-05-02 01:45+02;0.0
2015-05-02 02:00+02;0.0
2015-05-02 02:15+02;0.0
2015-05-02 02:30+02;0.0
2015-05-02 02:45+02;0.0
2015-05-02 03:00+02;0.0
2015-05-02 03:15+02;0.0
2015-05-02 03:30+02;0.0
2015-05-02 03:45+02;0.0
2015-05-02 04:00+02;0.0
2015-05-02 04:15+02;0.0
2015-05-02 04:30+02;0.0
2015-05-02 04:45+02;0.0
2015-05-02 05:00+02;0.0
2015-05-02 05:15+02;1.0
2015-05-02 05:30+02;5.0
2015-05-02 05:45+02;33.0
2015-05-02 06:00+02;99.0
2015-05-02 06:15+02;187.0
2015-05-02 06:30+02;363.0
2015-05-02 06:45+02;569.0
2015-05-02 07:00+02;791.0
2015-05-02 07:15+02;1035.0
2015-05-02 07:30+02;1304.0
2015-05-02 07:45+02;1630.0
2015-05-02 08:00+02;1955.0
2015-05-02 08:15+02;2256.0
2015-05-02 08:30+02;2568.0
2015-05-02 08:45+02;2929.0
2015-05-02 09:00+02;3278.0
2015-05-02 09:15+02;3389.0
2015-05-02 09:30+02;3689.0
2015-05-02 09:45+02;3928.0
2015-05-02 10:00+02;4127.0
2015-05-02 10:15+02;4242.0
2015-05-02 10:30+02;4310.0
2015-05-02 10:45+02;4301.0
2015-05-02 11:00+02;4234.0
2015-05-02 11:15+02;4118.0
2015-05-02 11:30+02;4060.0
2015-05-02 11:45+02;4021.0
2015-05-02 12:00+02;4127.0
2015-05-02 12:15+02;4074.0
2015-05-02 12:30+02;4255.0
2015-05-02 12:45+02;4227.0
2015-05-02 13:00+02;4264.0
2015-05-02 13:15+02;4348.0
2015-05-02 13:30+02;4561.0
2015-05-02 13:45+02;4532.0
2015-05-02 14:00+02;4494.0
2015-05-02 14:15+02;4390.0
2015-05-02 14:30+02;4369.0
2015-05-02 14:45+02;4334.0
2015-05-02 15:00+02;4081.0
2015-05-02 15:15+02;3963.0
2015-05-02 15:30+02;3989.0
2015-05-02 15:45+02;3757.0
2015-05-02 16:00+02;3625.0
2015-05-02 16:15+02;3457.0
2015-05-02 16:30+02;3332.0
2015-05-02 16:45+02;3012.0
2015-05-02 17:00+02;2752.0
2015-05-02 17:15+02;2479.0
2015-05-02 17:30+02;2328.0
2015-05-02 17:45+02;2137.0
2015-05-02 18:00+02;1851.0
2015-05-02 18:15+02;1568.0
2015-05-02 18:30+02;1278.0
2015-05-02 18:45+02;985.0
2015-05-02 19:00+02;743.0
2015-05-02 19:15+02;559.0
2015-05-02 19:30+02;368.0
2015-05-02 19:45+02;213.0
2015-05-02 20:00+02;115.0
2015-05-02 20:15+02;51.0
2015-05-02 20:30+02;16.0
2015-05-02 20:45+02;5.0
2015-05-02 21:00+02;0.0
2015-05-02 21:15+02;0.0
2015-05-02 21:30+02;0.0
2015-05-02 21:45+02;0.0
2015-05-02 22:00+02;0.0
2015-05-02 22:15+02;0.0
2015-05-02 22:30+02;0.0
2015-05-02 22:45+02;0.0
2015-05-02 23:00+02;0.0
2015-05-02 23:15+02;0.0
2015-05-02 23:30+02;0.0
2015-05-02 23:45+02;0.0
2015-05-03 00:00+02;0.0
2015-05-03 00:15+02;0.0
2015-05-03 00:30+02;0.0
2015-05-03 00:45+02;0.0
2015-05-03 01:00+02;0.0
2015-05-03 01:15+02;0.0
2015-05-03 01:30+02;0.0
2015-05-03 01:45+02;0.0
2015-05-03 02:00+02;0.0
2015-05-03 02:15+02;0.0
2015-05-03 02:30+02;0.0
2015-05-03 02:45+02;0.0
2015-05-03 03:00+02;0.0
2015-05-03 03:15+02;0.0
2015-05-03 03:30+02;0.0
2015-05-03 03:45+02;0.0
2015-05-03 04:00+02;0.0
2015-05-03 04:15+02;0.0
2015-05-03 04:30+02;0.0
2015-05-03 04:45+02;0.0
2015-05-03 05:00+02;0.0
2015-05-03 05:15+02;1.0
2015-05-03 05:30+02;9.0
2015-05-03 05:45+02;40.0
2015-05-03 06:00+02;106.0
2015-05-03 06:15+02;201.0
2015-05-03 06:30+02;345.0
2015-05-03 06:45+02;586.0
2015-05-03 07:00+02;841.0
2015-05-03 07:15+02;1092.0
2015-05-03 07:30+02;1370.0
2015-05-03 07:45+02;1664.0
2015-05-03 08:00+02;1968.0
2015-05-03 08:15+02;2304.0
2015-05-03 08:30+02;2666.0
2015-05-03 08:45+02;2942.0
2015-05-03 09:00+02;3150.0
2015-05-03 09:15+02;3216.0
2015-05-03 09:30+02;3506.0
2015-05-03 09:45+02;3641.0
2015-05-03 10:00+02;3692.0
2015-05-03 10:15+02;3817.0
2015-05-03 10:30+02;3960.0
2015-05-03 10:45+02;4113.0
2015-05-03 11:00+02;4334.0
2015-05-03 11:15+02;4541.0
2015-05-03 11:30+02;4773.0
2015-05-03 11:45+02;4784.0
2015-05-03 12:00+02;4773.0
2015-05-03 12:15+02;4891.0
2015-05-03 12:30+02;4896.0
2015-05-03 12:45+02;4853.0
2015-05-03 13:00+02;4661.0
2015-05-03 13:15+02;4631.0
2015-05-03 13:30+02;4495.0
2015-05-03 13:45+02;4376.0
2015-05-03 14:00+02;4161.0
2015-05-03 14:15+02;3976.0
2015-05-03 14:30+02;3790.0
2015-05-03 14:45+02;3520.0
2015-05-03 15:00+02;3341.0
2015-05-03 15:15+02;3071.0
2015-05-03 15:30+02;2807.0
2015-05-03 15:45+02;2484.0
2015-05-03 16:00+02;2193.0
2015-05-03 16:15+02;2001.0
2015-05-03 16:30+02;1728.0
2015-05-03 16:45+02;1507.0
2015-05-03 17:00+02;1326.0
2015-05-03 17:15+02;1141.0
2015-05-03 17:30+02;982.0
2015-05-03 17:45+02;879.0
2015-05-03 18:00+02;731.0
2015-05-03 18:15+02;606.0
2015-05-03 18:30+02;476.0
2015-05-03 18:45+02;364.0
2015-05-03 19:00+02;262.0
2015-05-03 19:15+02;173.0
2015-05-03 19:30+02;101.0
2015-05-03 19:45+02;55.0
2015-05-03 20:00+02;30.0
2015-05-03 20:15+02;12.0
2015-05-03 20:30+02;4.0
2015-05-03 20:45+02;6.0
2015-05-03 21:00+02;0.0
2015-05-03 21:15+02;0.0
2015-05-03 21:30+02;0.0
2015-05-03 21:45+02;0.0
2015-05-03 22:00+02;0.0
2015-05-03 22:15+02;0.0
2015-05-03 22:30+02;0.0
2015-05-03 22:45+02;0.0
2015-05-03 23:00+02;0.0
2015-05-03 23:15+02;0.0
2015-05-03 23:30+02;0.0
2015-05-03 23:45+02;0.0
2015-05-04 00:00+02;0.0
2015-05-04 00:15+02;0.0
2015-05-04 00:30+02;0.0
2015-05-04 00:45+02;0.0
2015-05-04 01:00+02;0.0
2015-05-04 01:15+02;0.0
2015-05-04 01:30+02;0.0
2015-05-04 01:45+02;0.0
2015-05-04 02:00+02;0.0
2015-05-04 02:15+02;0.0
2015-05-04 02:30+02;0.0
2015-05-04 02:45+02;0.0
2015-05-04 03:00+02;0.0
2015-05-04 03:15+02;0.0
2015-05-04 03:30+02;0.0
2015-05-04 03:45+02;0.0
2015-05-04 04:00+02;0.0
2015-05-04 04:15+02;0.0
2015-05-04 04:30+02;0.0
2015-05-04 04:45+02;0.0
2015-05-04 05:00+02;0.0
2015-05-04 05:15+02;1.0
2015-05-04 05:30+02;8.0
2015-05-04 05:45+02;32.0
2015-05-04 06:00+02;83.0
2015-05-04 06:15+02;141.0
2015-05-04 06:30+02;275.0
2015-05-04 06:45+02;470.0
2015-05-04 07:00+02;652.0
2015-05-04 07:15+02;823.0
2015-05-04 07:30+02;1033.0
2015-05-04 07:45+02;1313.0
2015-05-04 08:00+02;1591.0
2015-05-04 08:15+02;1897.0
2015-05-04 08:30+02;2222.0
2015-05-04 08:45+02;2366.0
2015-05-04 09:00+02;2600.0
2015-05-04 09:15+02;2850.0
2015-05-04 09:30+02;2965.0
2015-05-04 09:45+02;3081.0
2015-05-04 10:00+02;3229.0
2015-05-04 10:15+02;3482.0
2015-05-04 10:30+02;3631.0
2015-05-04 10:45+02;3817.0
2015-05-04 11:00+02;4074.0
2015-05-04 11:15+02;4164.0
2015-05-04 11:30+02;4224.0
2015-05-04 11:45+02;4346.0
2015-05-04 12:00+02;4455.0
2015-05-04 12:15+02;4548.0
2015-05-04 12:30+02;4496.0
2015-05-04 12:45+02;4652.0
2015-05-04 13:00+02;4507.0
2015-05-04 13:15+02;4367.0
2015-05-04 13:30+02;4443.0
2015-05-04 13:45+02;4444.0
2015-05-04 14:00+02;4316.0
2015-05-04 14:15+02;4087.0
2015-05-04 14:30+02;3859.0
2015-05-04 14:45+02;4076.0
2015-05-04 15:00+02;4163.0
2015-05-04 15:15+02;3971.0
2015-05-04 15:30+02;3980.0
2015-05-04 15:45+02;3907.0
2015-05-04 16:00+02;3779.0
2015-05-04 16:15+02;3500.0
2015-05-04 16:30+02;3308.0
2015-05-04 16:45+02;2935.0
2015-05-04 17:00+02;2767.0
2015-05-04 17:15+02;2501.0
2015-05-04 17:30+02;2136.0
2015-05-04 17:45+02;1830.0
2015-05-04 18:00+02;1577.0
2015-05-04 18:15+02;1260.0
2015-05-04 18:30+02;1030.0
2015-05-04 18:45+02;842.0
2015-05-04 19:00+02;654.0
2015-05-04 19:15+02;504.0
2015-05-04 19:30+02;363.0
2015-05-04 19:45+02;226.0
2015-05-04 20:00+02;123.0
2015-05-04 20:15+02;60.0
2015-05-04 20:30+02;20.0
2015-05-04 20:45+02;6.0
2015-05-04 21:00+02;0.0
2015-05-04 21:15+02;0.0
2015-05-04 21:30+02;0.0
2015-05-04 21:45+02;0.0
2015-05-04 22:00+02;0.0
2015-05-04 22:15+02;0.0
2015-05-04 22:30+02;0.0
2015-05-04 22:45+02;0.0
2015-05-04 23:00+02;0.0
2015-05-04 23:15+02;0.0
2015-05-04 23:30+02;0.0
2015-05-04 23:45+02;0.0
2015-05-05 00:00+02;0.0
2015-05-05 00:15+02;0.0
2015-05-05 00:30+02;0.0
2015-05-05 00:45+02;0.0
2015-05-05 01:00+02;0.0
2015-05-05 01:15+02;0.0
2015-05-05 01:30+02;0.0
2015-05-05 01:45+02;0.0
2015-05-05 02:00+02;0.0
2015-05-05 02:15+02;0.0
2015-05-05 02:30+02;0.0
2015-05-05 02:45+02;0.0
2015-05-05 03:00+02;0.0
2015-05-05 03:15+02;0.0
2015-05-05 03:30+02;0.0
2015-05-05 03:45+02;0.0
2015-05-05 04:00+02;0.0
2015-05-05 04:15+02;0.0
2015-05-05 04:30+02;0.0
2015-05-05 04:45+02;0.0
2015-05-05 05:00+02;0.0
2015-05-05 05:15+02;1.0
2015-05-05 05:30+02;7.0
2015-05-05 05:45+02;25.0
2015-05-05 06:00+02;60.0
2015-05-05 06:15+02;
2015-05-05 06:30+02;
2015-05-05 06:45+02;
2015-05-05 07:00+02;401.0
2015-05-05 07:15+02;502.0
2015-05-05 07:30+02;596.0
2015-05-05 07:45+02;722.0
2015-05-05 08:00+02;949.0
2015-05-05 08:15+02;1043.0
2015-05-05 08:30+02;1152.0
2015-05-05 08:45+02;1310.0
2015-05-05 09:00+02;1470.0
2015-05-05 09:15+02;1590.0
2015-05-05 09:30+02;1696.0
2015-05-05 09:45+02;1811.0
2015-05-05 10:00+02;1988.0
2015-05-05 10:15+02;1991.0
2015-05-05 10:30+02;2071.0
2015-05-05 10:45+02;2229.0
2015-05-05 11:00+02;2280.0
2015-05-05 11:15+02;2276.0
2015-05-05 11:30+02;2397.0
2015-05-05 11:45+02;2473.0
2015-05-05 12:00+02;2512.0
2015-05-05 12:15+02;2503.0
2015-05-05 12:30+02;2403.0
2015-05-05 12:45+02;2417.0
2015-05-05 13:00+02;2320.0
2015-05-05 13:15+02;2246.0
2015-05-05 13:30+02;2075.0
2015-05-05 13:45+02;2017.0
2015-05-05 14:00+02;1847.0
2015-05-05 14:15+02;1817.0
2015-05-05 14:30+02;1825.0
2015-05-05 14:45+02;1943.0
2015-05-05 15:00+02;2002.0
2015-05-05 15:15+02;1976.0
2015-05-05 15:30+02;2082.0
2015-05-05 15:45+02;2154.0
2015-05-05 16:00+02;2119.0
2015-05-05 16:15+02;2120.0
2015-05-05 16:30+02;2042.0
2015-05-05 16:45+02;2018.0
2015-05-05 17:00+02;1859.0
2015-05-05 17:15+02;1715.0
2015-05-05 17:30+02;1541.0
2015-05-05 17:45+02;1300.0
2015-05-05 18:00+02;1091.0
2015-05-05 18:15+02;919.0
2015-05-05 18:30+02;776.0
2015-05-05 18:45+02;598.0
2015-05-05 19:00+02;463.0
2015-05-05 19:15+02;348.0
2015-05-05 19:30+02;249.0
2015-05-05 19:45+02;142.0
2015-05-05 20:00+02;93.0
2015-05-05 20:15+02;52.0
2015-05-05 20:30+02;17.0
2015-05-05 20:45+02;5.0
2015-05-05 21:00+02;0.0
2015-05-05 21:15+02;0.0
2015-05-05 21:30+02;0.0
2015-05-05 21:45+02;0.0
2015-05-05 22:00+02;0.0
2015-05-05 22:15+02;0.0
2015-05-05 22:30+02;0.0
2015-05-05 22:45+02;0.0
2015-05-05 23:00+02;0.0
2015-05-05 23:15+02;0.0
2015-05-05 23:30+02;0.0
2015-05-05 23:45+02;0.0
2015-05-06 00:00+02;0.0
2015-05-06 00:15+02;0.0
2015-05-06 00:30+02;0.0
2015-05-06 00:45+02;0.0
2015-05-06 01:00+02;0.0
2015-05-06 01:15+02;0.0
2015-05-06 01:30+02;0.0
2015-05-06 01:45+02;0.0
2015-05-06 02:00+02;0.0
2015-05-06 02:15+02;0.0
2015-05-06 02:30+02;0.0
2015-05-06 02:45+02;0.0
2015-05-06 03:00+02;0.0
2015-05-06 03:15+02;0.0
2015-05-06 03:30+02;0.0
2015-05-06 03:45+02;0.0
2015-05-06 04:00+02;0.0
2015-05-06 04:15+02;0.0
2015-05-06 04:30+02;0.0
2015-05-06 04:45+02;0.0
2015-05-06 05:00+02;0.0
2015-05-06 05:15+02;3.0
2015-05-06 05:30+02;16.0
2015-05-06 05:45+02;50.0
2015-05-06 06:00+02;114.0
2015-05-06 06:15+02;196.0
2015-05-06 06:30+02;360.0
2015-05-06 06:45+02;536.0
2015-05-06 07:00+02;699.0
2015-05-06 07:15+02;834.0
2015-05-06 07:30+02;1005.0
2015-05-06 07:45+02;1218.0
2015-05-06 08:00+02;1397.0
2015-05-06 08:15+02;1690.0
2015-05-06 08:30+02;1866.0
2015-05-06 08:45+02;1989.0
2015-05-06 09:00+02;2163.0
2015-05-06 09:15+02;2439.0
2015-05-06 09:30+02;2830.0
2015-05-06 09:45+02;3086.0
2015-05-06 10:00+02;3161.0
2015-05-06 10:15+02;3202.0
2015-05-06 10:30+02;3273.0
2015-05-06 10:45+02;3470.0
2015-05-06 11:00+02;3562.0
2015-05-06 11:15+02;3659.0
2015-05-06 11:30+02;3715.0
2015-05-06 11:45+02;3894.0
2015-05-06 12:00+02;3783.0
2015-05-06 12:15+02;3863.0
2015-05-06 12:30+02;3882.0
2015-05-06 12:45+02;3895.0
2015-05-06 13:00+02;3748.0
2015-05-06 13:15+02;3803.0
2015-05-06 13:30+02;3898.0
2015-05-06 13:45+02;4221.0
2015-05-06 14:00+02;4278.0
2015-05-06 14:15+02;4307.0
2015-05-06 14:30+02;4427.0
2015-05-06 14:45+02;4366.0
2015-05-06 15:00+02;4203.0
2015-05-06 15:15+02;4101.0
2015-05-06 15:30+02;3977.0
2015-05-06 15:45+02;4018.0
2015-05-06 16:00+02;3963.0
2015-05-06 16:15+02;3617.0
2015-05-06 16:30+02;3379.0
2015-05-06 16:45+02;3161.0
2015-05-06 17:00+02;3015.0
2015-05-06 17:15+02;2675.0
2015-05-06 17:30+02;2403.0
2015-05-06 17:45+02;2109.0
2015-05-06 18:00+02;1752.0
2015-05-06 18:15+02;1469.0
2015-05-06 18:30+02;1193.0
2015-05-06 18:45+02;974.0
2015-05-06 19:00+02;750.0
2015-05-06 19:15+02;548.0
2015-05-06 19:30+02;414.0
2015-05-06 19:45+02;255.0
2015-05-06 20:00+02;132.0
2015-05-06 20:15+02;66.0
2015-05-06 20:30+02;24.0
2015-05-06 20:45+02;6.0
2015-05-06 21:00+02;0.0
2015-05-06 21:15+02;0.0
2015-05-06 21:30+02;0.0
2015-05-06 21:45+02;0.0
2015-05-06 22:00+02;0.0
2015-05-06 22:15+02;0.0
2015-05-06 22:30+02;0.0
2015-05-06 22:45+02;0.0
2015-05-06 23:00+02;0.0
2015-05-06 23:15+02;0.0
2015-05-06 23:30+02;0.0
2015-05-06 23:45+02;0.0
2015-05-07 00:00+02;0.0
2015-05-07 00:15+02;0.0
2015-05-07 00:30+02;0.0
2015-05-07 00:45+02;0.0
2015-05-07 01:00+02;0.0
2015-05-07 01:15+02;0.0
2015-05-07 01:30+02;0.0
2015-05-07 01:45+02;0.0
2015-05-07 02:00+02;0.0
2015-05-07 02:15+02;0.0
2015-05-07 02:30+02;0.0
2015-05-07 02:45+02;0.0
2015-05-07 03:00+02;0.0
2015-05-07 03:15+02;0.0
2015-05-07 03:30+02;0.0
2015-05-07 03:45+02;0.0
2015-05-07 04:00+02;0.0
2015-05-07 04:15+02;0.0
2015-05-07 04:30+02;0.0
2015-05-07 04:45+02;0.0
2015-05-07 05:00+02;1.0
2015-05-07 05:15+02;6.0
2015-05-07 05:30+02;22.0
2015-05-07 05:45+02;66.0
2015-05-07 06:00+02;145.0
2015-05-07 06:15+02;254.0
2015-05-07 06:30+02;442.0
2015-05-07 06:45+02;645.0
2015-05-07 07:00+02;882.0
2015-05-07 07:15+02;1127.0
2015-05-07 07:30+02;1403.0
2015-05-07 07:45+02;1747.0
2015-05-07 08:00+02;2010.0
2015-05-07 08:15+02;2351.0
2015-05-07 08:30+02;2633.0
2015-05-07 08:45+02;2943.0
2015-05-07 09:00+02;3164.0
2015-05-07 09:15+02;3445.0
2015-05-07 09:30+02;3544.0
2015-05-07 09:45+02;3759.0
2015-05-07 10:00+02;3932.0
2015-05-07 10:15+02;3933.0
2015-05-07 10:30+02;3992.0
2015-05-07 10:45+02;4100.0
2015-05-07 11:00+02;4034.0
2015-05-07 11:15+02;4028.0
2015-05-07 11:30+02;3866.0
2015-05-07 11:45+02;3766.0
2015-05-07 12:00+02;3715.0
2015-05-07 12:15+02;3533.0
2015-05-07 12:30+02;3458.0
2015-05-07 12:45+02;3467.0
2015-05-07 13:00+02;3590.0
2015-05-07 13:15+02;3245.0
2015-05-07 13:30+02;3275.0
2015-05-07 13:45+02;3441.0
2015-05-07 14:00+02;3589.0
2015-05-07 14:15+02;3658.0
2015-05-07 14:30+02;3466.0
2015-05-07 14:45+02;3503.0
2015-05-07 15:00+02;3445.0
2015-05-07 15:15+02;3618.0
2015-05-07 15:30+02;3466.0
2015-05-07 15:45+02;3354.0
2015-05-07 16:00+02;3335.0
2015-05-07 16:15+02;3259.0
2015-05-07 16:30+02;3148.0
2015-05-07 16:45+02;2971.0
2015-05-07 17:00+02;2634.0
2015-05-07 17:15+02;2419.0
2015-05-07 17:30+02;2198.0
2015-05-07 17:45+02;1993.0
2015-05-07 18:00+02;1763.0
2015-05-07 18:15+02;1451.0
2015-05-07 18:30+02;1231.0
2015-05-07 18:45+02;1014.0
2015-05-07 19:00+02;779.0
2015-05-07 19:15+02;571.0
2015-05-07 19:30+02;423.0
2015-05-07 19:45+02;255.0
2015-05-07 20:00+02;145.0
2015-05-07 20:15+02;77.0
2015-05-07 20:30+02;29.0
2015-05-07 20:45+02;7.0
2015-05-07 21:00+02;0.0
2015-05-07 21:15+02;0.0
2015-05-07 21:30+02;0.0
2015-05-07 21:45+02;0.0
2015-05-07 22:00+02;0.0
2015-05-07 22:15+02;0.0
2015-05-07 22:30+02;0.0
2015-05-07 22:45+02;0.0
2015-05-07 23:00+02;0.0
2015-05-07 23:15+02;0.0
2015-05-07 23:30+02;0.0
2015-05-07 23:45+02;0.0
2015-05-08 00:00+02;0.0
2015-05-08 00:15+02;0.0
2015-05-08 00:30+02;0.0
2015-05-08 00:45+02;0.0
2015-05-08 01:00+02;0.0
2015-05-08 01:15+02;0.0
2015-05-08 01:30+02;0.0
2015-05-08 01:45+02;0.0
2015-05-08 02:00+02;0.0
2015-05-08 02:15+02;0.0
2015-05-08 02:30+02;0.0
2015-05-08 02:45+02;0.0
2015-05-08 03:00+02;0.0
2015-05-08 03:15+02;0.0
2015-05-08 03:30+02;0.0
2015-05-08 03:45+02;0.0
2015-05-08 04:00+02;0.0
2015-05-08 04:15+02;0.0
2015-05-08 04:30+02;0.0
2015-05-08 04:45+02;0.0
2015-05-08 05:00+02;1.0
2015-05-08 05:15+02;5.0
2015-05-08 05:30+02;21.0
2015-05-08 05:45+02;61.0
2015-05-08 06:00+02;127.0
2015-05-08 06:15+02;254.0
2015-05-08 06:30+02;445.0
2015-05-08 06:45+02;627.0
2015-05-08 07:00+02;796.0
2015-05-08 07:15+02;930.0
2015-05-08 07:30+02;1121.0
2015-05-08 07:45+02;1412.0
2015-05-08 08:00+02;1683.0
2015-05-08 08:15+02;1989.0
2015-05-08 08:30+02;2185.0
2015-05-08 08:45+02;2457.0
2015-05-08 09:00+02;2733.0
2015-05-08 09:15+02;2972.0
2015-05-08 09:30+02;3256.0
2015-05-08 09:45+02;3492.0
2015-05-08 10:00+02;3679.0
2015-05-08 10:15+02;3800.0
2015-05-08 10:30+02;3994.0
2015-05-08 10:45+02;4218.0
2015-05-08 11:00+02;4319.0
2015-05-08 11:15+02;4443.0
2015-05-08 11:30+02;4529.0
2015-05-08 11:45+02;4412.0
2015-05-08 12:00+02;4482.0
2015-05-08 12:15+02;4528.0
2015-05-08 12:30+02;4487.0
2015-05-08 12:45+02;4448.0
2015-05-08 13:00+02;4343.0
2015-05-08 13:15+02;4361.0
2015-05-08 13:30+02;4292.0
2015-05-08 13:45+02;4123.0
2015-05-08 14:00+02;4057.0
2015-05-08 14:15+02;4069.0
2015-05-08 14:30+02;4024.0
2015-05-08 14:45+02;3717.0
2015-05-08 15:00+02;3622.0
2015-05-08 15:15+02;3625.0
2015-05-08 15:30+02;3446.0
2015-05-08 15:45+02;3296.0
2015-05-08 16:00+02;3221.0
2015-05-08 16:15+02;3049.0
2015-05-08 16:30+02;2749.0
2015-05-08 16:45+02;2482.0
2015-05-08 17:00+02;2171.0
2015-05-08 17:15+02;1998.0
2015-05-08 17:30+02;1833.0
2015-05-08 17:45+02;1657.0
2015-05-08 18:00+02;1441.0
2015-05-08 18:15+02;1213.0
2015-05-08 18:30+02;974.0
2015-05-08 18:45+02;787.0
2015-05-08 19:00+02;622.0
2015-05-08 19:15+02;489.0
2015-05-08 19:30+02;344.0
2015-05-08 19:45+02;209.0
2015-05-08 20:00+02;119.0
2015-05-08 20:15+02;64.0
2015-05-08 20:30+02;24.0
2015-05-08 20:45+02;5.0
2015-05-08 21:00+02;0.0
2015-05-08 21:15+02;0.0
2015-05-08 21:30+02;0.0
2015-05-08 21:45+02;0.0
2015-05-08 22:00+02;0.0
2015-05-08 22:15+02;0.0
2015-05-08 22:30+02;0.0
2015-05-08 22:45+02;0.0
2015-05-08 23:00+02;0.0
2015-05-08 23:15+02;0.0
2015-05-08 23:30+02;0.0
2015-05-08 23:45+02;0.0
2015-05-09 00:00+02;0.0
2015-05-09 00:15+02;0.0
2015-05-09 00:30+02;0.0
2015-05-09 00:45+02;0.0
2015-05-09 01:00+02;0.0
2015-05-09 01:15+02;0.0
2015-05-09 01:30+02;0.0
2015-05-09 01:45+02;0.0
2015-05-09 02:00+02;0.0
2015-05-09 02:15+02;0.0
2015-05-09 02:30+02;0.0
2015-05-09 02:45+02;0.0
2015-05-09 03:00+02;0.0
2015-05-09 03:15+02;0.0
2015-05-09 03:30+02;0.0
2015-05-09 03:45+02;0.0
2015-05-09 04:00+02;0.0
2015-05-09 04:15+02;0.0
2015-05-09 04:30+02;0.0
2015-05-09 04:45+02;0.0
2015-05-09 05:00+02;1.0
2015-05-09 05:15+02;3.0
2015-05-09 05:30+02;16.0
2015-05-09 05:45+02;46.0
2015-05-09 06:00+02;96.0
2015-05-09 06:15+02;146.0
2015-05-09 06:30+02;261.0
2015-05-09 06:45+02;388.0
2015-05-09 07:00+02;519.0
2015-05-09 07:15+02;673.0
2015-05-09 07:30+02;887.0
2015-05-09 07:45+02;1230.0
2015-05-09 08:00+02;1450.0
2015-05-09 08:15+02;1674.0
2015-05-09 08:30+02;2032.0
2015-05-09 08:45+02;2277.0
2015-05-09 09:00+02;2484.0
2015-05-09 09:15+02;2717.0
2015-05-09 09:30+02;2965.0
2015-05-09 09:45+02;3124.0
2015-05-09 10:00+02;3228.0
2015-05-09 10:15+02;3339.0
2015-05-09 10:30+02;3388.0
2015-05-09 10:45+02;3518.0
2015-05-09 11:00+02;3524.0
2015-05-09 11:15+02;3615.0
2015-05-09 11:30+02;3707.0
2015-05-09 11:45+02;3550.0
2015-05-09 12:00+02;3473.0
2015-05-09 12:15+02;3285.0
2015-05-09 12:30+02;3237.0
2015-05-09 12:45+02;3103.0
2015-05-09 13:00+02;2908.0
2015-05-09 13:15+02;2851.0
2015-05-09 13:30+02;2752.0
2015-05-09 13:45+02;2745.0
2015-05-09 14:00+02;2650.0
2015-05-09 14:15+02;2612.0
2015-05-09 14:30+02;2470.0
2015-05-09 14:45+02;2397.0
2015-05-09 15:00+02;2361.0
2015-05-09 15:15+02;2282.0
2015-05-09 15:30+02;2299.0
2015-05-09 15:45+02;2295.0
2015-05-09 16:00+02;2263.0
2015-05-09 16:15+02;2235.0
2015-05-09 16:30+02;2045.0
2015-05-09 16:45+02;1952.0
2015-05-09 17:00+02;1871.0
2015-05-09 17:15+02;1640.0
2015-05-09 17:30+02;1502.0
2015-05-09 17:45+02;1354.0
2015-05-09 18:00+02;1183.0
2015-05-09 18:15+02;1004.0
2015-05-09 18:30+02;866.0
2015-05-09 18:45+02;739.0
2015-05-09 19:00+02;564.0
2015-05-09 19:15+02;449.0
2015-05-09 19:30+02;306.0
2015-05-09 19:45+02;179.0
2015-05-09 20:00+02;115.0
2015-05-09 20:15+02;76.0
2015-05-09 20:30+02;31.0
2015-05-09 20:45+02;7.0
2015-05-09 21:00+02;0.0
2015-05-09 21:15+02;0.0
2015-05-09 21:30+02;0.0
2015-05-09 21:45+02;0.0
2015-05-09 22:00+02;0.0
2015-05-09 22:15+02;0.0
2015-05-09 22:30+02;0.0
2015-05-09 22:45+02;0.0
2015-05-09 23:00+02;0.0
2015-05-09 23:15+02;0.0
2015-05-09 23:30+02;0.0
2015-05-09 23:45+02;0.0
2015-05-10 00:00+02;0.0
2015-05-10 00:15+02;0.0
2015-05-10 00:30+02;0.0
2015-05-10 00:45+02;0.0
2015-05-10 01:00+02;0.0
2015-05-10 01:15+02;0.0
2015-05-10 01:30+02;0.0
2015-05-10 01:45+02;0.0
2015-05-10 02:00+02;0.0
2015-05-10 02:15+02;0.0
2015-05-10 02:30+02;0.0
2015-05-10 02:45+02;0.0
2015-05-10 03:00+02;0.0
2015-05-10 03:15+02;0.0
2015-05-10 03:30+02;0.0
2015-05-10 03:45+02;0.0
2015-05-10 04:00+02;0.0
2015-05-10 04:15+02;0.0
2015-05-10 04:30+02;0.0
2015-05-10 04:45+02;0.0
2015-05-10 05:00+02;1.0
2015-05-10 05:15+02;4.0
2015-05-10 05:30+02;21.0
2015-05-10 05:45+02;56.0
2015-05-10 06:00+02;111.0
2015-05-10 06:15+02;188.0
2015-05-10 06:30+02;338.0
2015-05-10 06:45+02;490.0
2015-05-10 07:00+02;621.0
2015-05-10 07:15+02;778.0
2015-05-10 07:30+02;968.0
2015-05-10 07:45+02;1109.0
2015-05-10 08:00+02;1257.0
2015-05-10 08:15+02;1434.0
2015-05-10 08:30+02;1497.0
2015-05-10 08:45+02;1613.0
2015-05-10 09:00+02;1716.0
2015-05-10 09:15+02;1952.0
2015-05-10 09:30+02;2212.0
2015-05-10 09:45+02;2345.0
2015-05-10 10:00+02;2530.0
2015-05-10 10:15+02;2703.0
2015-05-10 10:30+02;2818.0
2015-05-10 10:45+02;3027.0
2015-05-10 11:00+02;3216.0
2015-05-10 11:15+02;3275.0
2015-05-10 11:30+02;3489.0
2015-05-10 11:45+02;3575.0
2015-05-10 12:00+02;3620.0
2015-05-10 12:15+02;3722.0
2015-05-10 12:30+02;3884.0
2015-05-10 12:45+02;3848.0
2015-05-10 13:00+02;3837.0
2015-05-10 13:15+02;3969.0
2015-05-10 13:30+02;4086.0
2015-05-10 13:45+02;4031.0
2015-05-10 14:00+02;4094.0
2015-05-10 14:15+02;4176.0
2015-05-10 14:30+02;4036.0
2015-05-10 14:45+02;4205.0
2015-05-10 15:00+02;4087.0
2015-05-10 15:15+02;4074.0
2015-05-10 15:30+02;4006.0
2015-05-10 15:45+02;3930.0
2015-05-10 16:00+02;3829.0
2015-05-10 16:15+02;3579.0
2015-05-10 16:30+02;3498.0
2015-05-10 16:45+02;3336.0
2015-05-10 17:00+02;3074.0
2015-05-10 17:15+02;2811.0
2015-05-10 17:30+02;2551.0
2015-05-10 17:45+02;2263.0
2015-05-10 18:00+02;1992.0
2015-05-10 18:15+02;1676.0
2015-05-10 18:30+02;1406.0
2015-05-10 18:45+02;1113.0
2015-05-10 19:00+02;875.0
2015-05-10 19:15+02;656.0
2015-05-10 19:30+02;521.0
2015-05-10 19:45+02;372.0
2015-05-10 20:00+02;214.0
2015-05-10 20:15+02;101.0
2015-05-10 20:30+02;39.0
2015-05-10 20:45+02;8.0
2015-05-10 21:00+02;0.0
2015-05-10 21:15+02;0.0
2015-05-10 21:30+02;0.0
2015-05-10 21:45+02;0.0
2015-05-10 22:00+02;0.0
2015-05-10 22:15+02;0.0
2015-05-10 22:30+02;0.0
2015-05-10 22:45+02;0.0
2015-05-10 23:00+02;0.0
2015-05-10 23:15+02;0.0
2015-05-10 23:30+02;0.0
2015-05-10 23:45+02;0.0
2015-05-11 00:00+02;0.0
2015-05-11 00:15+02;0.0
2015-05-11 00:30+02;0.0
2015-05-11 00:45+02;0.0
2015-05-11 01:00+02;0.0
2015-05-11 01:15+02;0.0
2015-05-11 01:30+02;0.0
2015-05-11 01:45+02;0.0
2015-05-11 02:00+02;0.0
2015-05-11 02:15+02;0.0
2015-05-11 02:30+02;0.0
2015-05-11 02:45+02;0.0
2015-05-11 03:00+02;0.0
2015-05-11 03:15+02;0.0
2015-05-11 03:30+02;0.0
2015-05-11 03:45+02;0.0
2015-05-11 04:00+02;0.0
2015-05-11 04:15+02;0.0
2015-05-11 04:30+02;0.0
2015-05-11 04:45+02;0.0
2015-05-11 05:00+02;2.0
2015-05-11 05:15+02;13.0
2015-05-11 05:30+02;42.0
2015-05-11 05:45+02;96.0
2015-05-11 06:00+02;187.0
2015-05-11 06:15+02;346.0
2015-05-11 06:30+02;533.0
2015-05-11 06:45+02;749.0
2015-05-11 07:00+02;993.0
2015-05-11 07:15+02;1241.0
2015-05-11 07:30+02;1525.0
2015-05-11 07:45+02;1819.0
2015-05-11 08:00+02;2101.0
2015-05-11 08:15+02;2372.0
2015-05-11 08:30+02;2607.0
2015-05-11 08:45+02;2873.0
2015-05-11 09:00+02;3125.0
2015-05-11 09:15+02;3291.0
2015-05-11 09:30+02;3578.0
2015-05-11 09:45+02;3812.0
2015-05-11 10:00+02;4021.0
2015-05-11 10:15+02;4249.0
2015-05-11 10:30+02;4445.0
2015-05-11 10:45+02;4550.0
2015-05-11 11:00+02;4590.0
2015-05-11 11:15+02;4801.0
2015-05-11 11:30+02;4950.0
2015-05-11 11:45+02;5046.0
2015-05-11 12:00+02;5067.0
2015-05-11 12:15+02;5120.0
2015-05-11 12:30+02;5156.0
2015-05-11 12:45+02;5189.0
2015-05-11 13:00+02;5178.0
2015-05-11 13:15+02;5079.0
2015-05-11 13:30+02;4965.0
2015-05-11 13:45+02;4825.0
2015-05-11 14:00+02;4730.0
2015-05-11 14:15+02;4567.0
2015-05-11 14:30+02;4527.0
2015-05-11 14:45+02;4391.0
2015-05-11 15:00+02;4237.0
2015-05-11 15:15+02;4066.0
2015-05-11 15:30+02;4050.0
2015-05-11 15:45+02;3859.0
2015-05-11 16:00+02;3660.0
2015-05-11 16:15+02;3446.0
2015-05-11 16:30+02;3226.0
2015-05-11 16:45+02;3081.0
2015-05-11 17:00+02;2858.0
2015-05-11 17:15+02;2639.0
2015-05-11 17:30+02;2372.0
2015-05-11 17:45+02;2094.0
2015-05-11 18:00+02;1777.0
2015-05-11 18:15+02;1537.0
2015-05-11 18:30+02;1295.0
2015-05-11 18:45+02;1034.0
2015-05-11 19:00+02;820.0
2015-05-11 19:15+02;669.0
2015-05-11 19:30+02;485.0
2015-05-11 19:45+02;294.0
2015-05-11 20:00+02;174.0
2015-05-11 20:15+02;109.0
2015-05-11 20:30+02;46.0
2015-05-11 20:45+02;10.0
2015-05-11 21:00+02;0.0
2015-05-11 21:15+02;0.0
2015-05-11 21:30+02;0.0
2015-05-11 21:45+02;0.0
2015-05-11 22:00+02;0.0
2015-05-11 22:15+02;0.0
2015-05-11 22:30+02;0.0
2015-05-11 22:45+02;0.0
2015-05-11 23:00+02;0.0
2015-05-11 23:15+02;0.0
2015-05-11 23:30+02;0.0
2015-05-11 23:45+02;0.0
2015-05-12 00:00+02;0.0
2015-05-12 00:15+02;0.0
2015-05-12 00:30+02;0.0
2015-05-12 00:45+02;0.0
2015-05-12 01:00+02;0.0
2015-05-12 01:15+02;0.0
2015-05-12 01:30+02;0.0
2015-05-12 01:45+02;0.0
2015-05-12 02:00+02;0.0
2015-05-12 02:15+02;0.0
2015-05-12 02:30+02;0.0
2015-05-12 02:45+02;0.0
2015-05-12 03:00+02;0.0
2015-05-12 03:15+02;0.0
2015-05-12 03:30+02;0.0
2015-05-12 03:45+02;0.0
2015-05-12 04:00+02;0.0
2015-05-12 04:15+02;0.0
2015-05-12 04:30+02;0.0
2015-05-12 04:45+02;0.0
2015-05-12 05:00+02;5.0
2015-05-12 05:15+02;13.0
2015-05-12 05:30+02;40.0
2015-05-12 05:45+02;86.0
2015-05-12 06:00+02;162.0
2015-05-12 06:15+02;305.0
2015-05-12 06:30+02;502.0
2015-05-12 06:45+02;674.0
2015-05-12 07:00+02;827.0
2015-05-12 07:15+02;1027.0
2015-05-12 07:30+02;1293.0
2015-05-12 07:45+02;1620.0
2015-05-12 08:00+02;1872.0
2015-05-12 08:15+02;2023.0
2015-05-12 08:30+02;2225.0
2015-05-12 08:45+02;2457.0
2015-05-12 09:00+02;2685.0
2015-05-12 09:15+02;2869.0
2015-05-12 09:30+02;3043.0
2015-05-12 09:45+02;3251.0
2015-05-12 10:00+02;3397.0
2015-05-12 10:15+02;3534.0
2015-05-12 10:30+02;3675.0
2015-05-12 10:45+02;3816.0
2015-05-12 11:00+02;3936.0
2015-05-12 11:15+02;4036.0
2015-05-12 11:30+02;4094.0
2015-05-12 11:45+02;4013.0
2015-05-12 12:00+02;4182.0
2015-05-12 12:15+02;4277.0
2015-05-12 12:30+02;4298.0
2015-05-12 12:45+02;4313.0
2015-05-12 13:00+02;4333.0
2015-05-12 13:15+02;4350.0
2015-05-12 13:30+02;4265.0
2015-05-12 13:45+02;4225.0
2015-05-12 14:00+02;4139.0
2015-05-12 14:15+02;4028.0
2015-05-12 14:30+02;3919.0
2015-05-12 14:45+02;3777.0
2015-05-12 15:00+02;3567.0
2015-05-12 15:15+02;3442.0
2015-05-12 15:30+02;3258.0
2015-05-12 15:45+02;3012.0
2015-05-12 16:00+02;2722.0
2015-05-12 16:15+02;2439.0
2015-05-12 16:30+02;2232.0
2015-05-12 16:45+02;2002.0
2015-05-12 17:00+02;1764.0
2015-05-12 17:15+02;1560.0
2015-05-12 17:30+02;1337.0
2015-05-12 17:45+02;1088.0
2015-05-12 18:00+02;867.0
2015-05-12 18:15+02;721.0
2015-05-12 18:30+02;545.0
2015-05-12 18:45+02;433.0
2015-05-12 19:00+02;353.0
2015-05-12 19:15+02;270.0
2015-05-12 19:30+02;182.0
2015-05-12 19:45+02;114.0
2015-05-12 20:00+02;70.0
2015-05-12 20:15+02;40.0
2015-05-12 20:30+02;19.0
2015-05-12 20:45+02;7.0
2015-05-12 21:00+02;0.0
2015-05-12 21:15+02;0.0
2015-05-12 21:30+02;0.0
2015-05-12 21:45+02;0.0
2015-05-12 22:00+02;0.0
2015-05-12 22:15+02;0.0
2015-05-12 22:30+02;0.0
2015-05-12 22:45+02;0.0
2015-05-12 23:00+02;0.0
2015-05-12 23:15+02;0.0
2015-05-12 23:30+02;0.0
2015-05-12 23:45+02;0.0
2015-05-13 00:00+02;0.0
2015-05-13 00:15+02;0.0
2015-05-13 00:30+02;0.0
2015-05-13 00:45+02;0.0
2015-05-13 01:00+02;0.0
2015-05-13 01:15+02;0.0
2015-05-13 01:30+02;0.0
2015-05-13 01:45+02;0.0
2015-05-13 02:00+02;0.0
2015-05-13 02:15+02;0.0
2015-05-13 02:30+02;0.0
2015-05-13 02:45+02;0.0
2015-05-13 03:00+02;0.0
2015-05-13 03:15+02;0.0
2015-05-13 03:30+02;0.0
2015-05-13 03:45+02;0.0
2015-05-13 04:00+02;0.0
2015-05-13 04:15+02;0.0
2015-05-13 04:30+02;0.0
2015-05-13 04:45+02;0.0
2015-05-13 05:00+02;4.0
2015-05-13 05:15+02;18.0
2015-05-13 05:30+02;56.0
2015-05-13 05:45+02;120.0
2015-05-13 06:00+02;229.0
2015-05-13 06:15+02;353.0
2015-05-13 06:30+02;503.0
2015-05-13 06:45+02;712.0
2015-05-13 07:00+02;979.0
2015-05-13 07:15+02;1277.0
2015-05-13 07:30+02;1595.0
2015-05-13 07:45+02;1899.0
2015-05-13 08:00+02;2227.0
2015-05-13 08:15+02;2575.0
2015-05-13 08:30+02;2857.0
2015-05-13 08:45+02;3076.0
2015-05-13 09:00+02;3406.0
2015-05-13 09:15+02;3689.0
2015-05-13 09:30+02;3928.0
2015-05-13 09:45+02;4200.0
2015-05-13 10:00+02;4354.0
2015-05-13 10:15+02;4382.0
2015-05-13 10:30+02;4502.0
2015-05-13 10:45+02;4672.0
2015-05-13 11:00+02;4696.0
2015-05-13 11:15+02;4604.0
2015-05-13 11:30+02;4736.0
2015-05-13 11:45+02;4781.0
2015-05-13 12:00+02;4863.0
2015-05-13 12:15+02;4768.0
2015-05-13 12:30+02;4843.0
2015-05-13 12:45+02;4985.0
2015-05-13 13:00+02;4861.0
2015-05-13 13:15+02;4769.0
2015-05-13 13:30+02;4781.0
2015-05-13 13:45+02;4798.0
2015-05-13 14:00+02;4792.0
2015-05-13 14:15+02;4609.0
2015-05-13 14:30+02;4410.0
2015-05-13 14:45+02;4355.0
2015-05-13 15:00+02;4306.0
2015-05-13 15:15+02;4002.0
2015-05-13 15:30+02;3917.0
2015-05-13 15:45+02;3947.0
2015-05-13 16:00+02;3714.0
2015-05-13 16:15+02;3478.0
2015-05-13 16:30+02;3352.0
2015-05-13 16:45+02;3053.0
2015-05-13 17:00+02;2846.0
2015-05-13 17:15+02;2606.0
2015-05-13 17:30+02;2308.0
2015-05-13 17:45+02;2126.0
2015-05-13 18:00+02;1765.0
2015-05-13 18:15+02;1483.0
2015-05-13 18:30+02;1263.0
2015-05-13 18:45+02;1004.0
2015-05-13 19:00+02;813.0
2015-05-13 19:15+02;658.0
2015-05-13 19:30+02;487.0
2015-05-13 19:45+02;330.0
2015-05-13 20:00+02;199.0
2015-05-13 20:15+02;104.0
2015-05-13 20:30+02;47.0
2015-05-13 20:45+02;12.0
2015-05-13 21:00+02;8.0
2015-05-13 21:15+02;0.0
2015-05-13 21:30+02;0.0
2015-05-13 21:45+02;0.0
2015-05-13 22:00+02;0.0
2015-05-13 22:15+02;0.0
2015-05-13 22:30+02;0.0
2015-05-13 22:45+02;0.0
2015-05-13 23:00+02;0.0
2015-05-13 23:15+02;0.0
2015-05-13 23:30+02;0.0
2015-05-13 23:45+02;0.0
2015-05-14 00:00+02;0.0
2015-05-14 00:15+02;0.0
2015-05-14 00:30+02;0.0
2015-05-14 00:45+02;0.0
2015-05-14 01:00+02;0.0
2015-05-14 01:15+02;0.0
2015-05-14 01:30+02;0.0
2015-05-14 01:45+02;0.0
2015-05-14 02:00+02;0.0
2015-05-14 02:15+02;0.0
2015-05-14 02:30+02;0.0
2015-05-14 02:45+02;0.0
2015-05-14 03:00+02;0.0
2015-05-14 03:15+02;0.0
2015-05-14 03:30+02;0.0
2015-05-14 03:45+02;0.0
2015-05-14 04:00+02;0.0
2015-05-14 04:15+02;0.0
2015-05-14 04:30+02;0.0
2015-05-14 04:45+02;0.0
2015-05-14 05:00+02;3.0
2015-05-14 05:15+02;15.0
2015-05-14 05:30+02;49.0
2015-05-14 05:45+02;103.0
2015-05-14 06:00+02;191.0
2015-05-14 06:15+02;267.0
2015-05-14 06:30+02;407.0
2015-05-14 06:45+02;542.0
2015-05-14 07:00+02;694.0
2015-05-14 07:15+02;832.0
2015-05-14 07:30+02;1029.0
2015-05-14 07:45+02;1166.0
2015-05-14 08:00+02;1391.0
2015-05-14 08:15+02;1622.0
2015-05-14 08:30+02;1810.0
2015-05-14 08:45+02;2007.0
2015-05-14 09:00+02;2178.0
2015-05-14 09:15+02;2300.0
2015-05-14 09:30+02;2350.0
2015-05-14 09:45+02;2496.0
2015-05-14 10:00+02;2505.0
2015-05-14 10:15+02;2657.0
2015-05-14 10:30+02;2684.0
2015-05-14 10:45+02;2824.0
2015-05-14 11:00+02;2878.0
2015-05-14 11:15+02;3062.0
2015-05-14 11:30+02;3161.0
2015-05-14 11:45+02;3191.0
2015-05-14 12:00+02;3109.0
2015-05-14 12:15+02;3209.0
2015-05-14 12:30+02;3185.0
2015-05-14 12:45+02;3314.0
2015-05-14 13:00+02;3440.0
2015-05-14 13:15+02;3443.0
2015-05-14 13:30+02;3529.0
2015-05-14 13:45+02;3508.0
2015-05-14 14:00+02;3546.0
2015-05-14 14:15+02;3606.0
2015-05-14 14:30+02;3565.0
2015-05-14 14:45+02;3415.0
2015-05-14 15:00+02;3428.0
2015-05-14 15:15+02;3510.0
2015-05-14 15:30+02;3324.0
2015-05-14 15:45+02;3231.0
2015-05-14 16:00+02;3126.0
2015-05-14 16:15+02;2992.0
2015-05-14 16:30+02;2822.0
2015-05-14 16:45+02;2654.0
2015-05-14 17:00+02;2533.0
2015-05-14 17:15+02;2374.0
2015-05-14 17:30+02;2176.0
2015-05-14 17:45+02;1923.0
2015-05-14 18:00+02;1710.0
2015-05-14 18:15+02;1507.0
2015-05-14 18:30+02;1292.0
2015-05-14 18:45+02;1052.0
2015-05-14 19:00+02;832.0
2015-05-14 19:15+02;670.0
2015-05-14 19:30+02;528.0
2015-05-14 19:45+02;350.0
2015-05-14 20:00+02;212.0
2015-05-14 20:15+02;122.0
2015-05-14 20:30+02;57.0
2015-05-14 20:45+02;15.0
2015-05-14 21:00+02;9.0
2015-05-14 21:15+02;0.0
2015-05-14 21:30+02;0.0
2015-05-14 21:45+02;0.0
2015-05-14 22:00+02;0.0
2015-05-14 22:15+02;0.0
2015-05-14 22:30+02;0.0
2015-05-14 22:45+02;0.0
2015-05-14 23:00+02;0.0
2015-05-14 23:15+02;0.0
2015-05-14 23:30+02;0.0
2015-05-14 23:45+02;0.0
2015-05-15 00:00+02;0.0
2015-05-15 00:15+02;0.0
2015-05-15 00:30+02;0.0
2015-05-15 00:45+02;0.0
2015-05-15 01:00+02;0.0
2015-05-15 01:15+02;0.0
2015-05-15 01:30+02;0.0
2015-05-15 01:45+02;0.0
2015-05-15 02:00+02;0.0
2015-05-15 02:15+02;0.0
2015-05-15 02:30+02;0.0
2015-05-15 02:45+02;0.0
2015-05-15 03:00+02;0.0
2015-05-15 03:15+02;0.0
2015-05-15 03:30+02;0.0
2015-05-15 03:45+02;0.0
2015-05-15 04:00+02;0.0
2015-05-15 04:15+02;0.0
2015-05-15 04:30+02;0.0
2015-05-15 04:45+02;0.0
2015-05-15 05:00+02;2.0
2015-05-15 05:15+02;23.0
2015-05-15 05:30+02;68.0
2015-05-15 05:45+02;135.0
2015-05-15 06:00+02;244.0
2015-05-15 06:15+02;396.0
2015-05-15 06:30+02;578.0
2015-05-15 06:45+02;812.0
2015-05-15 07:00+02;1079.0
2015-05-15 07:15+02;1306.0
2015-05-15 07:30+02;1567.0
2015-05-15 07:45+02;1858.0
2015-05-15 08:00+02;2152.0
2015-05-15 08:15+02;2467.0
2015-05-15 08:30+02;2753.0
2015-05-15 08:45+02;3057.0
2015-05-15 09:00+02;3263.0
2015-05-15 09:15+02;3482.0
2015-05-15 09:30+02;3755.0
2015-05-15 09:45+02;3872.0
2015-05-15 10:00+02;4085.0
2015-05-15 10:15+02;4262.0
2015-05-15 10:30+02;4208.0
2015-05-15 10:45+02;4430.0
2015-05-15 11:00+02;4447.0
2015-05-15 11:15+02;4548.0
2015-05-15 11:30+02;4570.0
2015-05-15 11:45+02;4551.0
2015-05-15 12:00+02;4692.0
2015-05-15 12:15+02;4830.0
2015-05-15 12:30+02;4875.0
2015-05-15 12:45+02;5082.0
2015-05-15 13:00+02;5152.0
2015-05-15 13:15+02;5275.0
2015-05-15 13:30+02;5270.0
2015-05-15 13:45+02;5303.0
2015-05-15 14:00+02;5393.0
2015-05-15 14:15+02;5357.0
2015-05-15 14:30+02;5272.0
2015-05-15 14:45+02;5274.0
2015-05-15 15:00+02;5213.0
2015-05-15 15:15+02;5000.0
2015-05-15 15:30+02;4886.0
2015-05-15 15:45+02;4695.0
2015-05-15 16:00+02;4494.0
2015-05-15 16:15+02;4176.0
2015-05-15 16:30+02;3947.0
2015-05-15 16:45+02;3738.0
2015-05-15 17:00+02;3448.0
2015-05-15 17:15+02;3141.0
2015-05-15 17:30+02;2788.0
2015-05-15 17:45+02;2446.0
2015-05-15 18:00+02;2129.0
2015-05-15 18:15+02;1804.0
2015-05-15 18:30+02;1505.0
2015-05-15 18:45+02;1178.0
2015-05-15 19:00+02;916.0
2015-05-15 19:15+02;707.0
2015-05-15 19:30+02;577.0
2015-05-15 19:45+02;455.0
2015-05-15 20:00+02;297.0
2015-05-15 20:15+02;146.0
2015-05-15 20:30+02;66.0
2015-05-15 20:45+02;16.0
2015-05-15 21:00+02;8.0
2015-05-15 21:15+02;0.0
2015-05-15 21:30+02;0.0
2015-05-15 21:45+02;0.0
2015-05-15 22:00+02;0.0
2015-05-15 22:15+02;0.0
2015-05-15 22:30+02;0.0
2015-05-15 22:45+02;0.0
2015-05-15 23:00+02;0.0
2015-05-15 23:15+02;0.0
2015-05-15 23:30+02;0.0
2015-05-15 23:45+02;0.0
2015-05-16 00:00+02;0.0
2015-05-16 00:15+02;0.0
2015-05-16 00:30+02;0.0
2015-05-16 00:45+02;0.0
2015-05-16 01:00+02;0.0
2015-05-16 01:15+02;0.0
2015-05-16 01:30+02;0.0
2015-05-16 01:45+02;0.0
2015-05-16 02:00+02;0.0
2015-05-16 02:15+02;0.0
2015-05-16 02:30+02;0.0
2015-05-16 02:45+02;0.0
2015-05-16 03:00+02;0.0
2015-05-16 03:15+02;0.0
2015-05-16 03:30+02;0.0
2015-05-16 03:45+02;0.0
2015-05-16 04:00+02;0.0
2015-05-16 04:15+02;0.0
2015-05-16 04:30+02;0.0
2015-05-16 04:45+02;0.0
2015-05-16 05:00+02;7.0
2015-05-16 05:15+02;27.0
2015-05-16 05:30+02;73.0
2015-05-16 05:45+02;138.0
2015-05-16 06:00+02;244.0
2015-05-16 06:15+02;389.0
2015-05-16 06:30+02;570.0
2015-05-16 06:45+02;789.0
2015-05-16 07:00+02;1044.0
2015-05-16 07:15+02;1275.0
2015-05-16 07:30+02;1576.0
2015-05-16 07:45+02;1914.0
2015-05-16 08:00+02;2178.0
2015-05-16 08:15+02;2413.0
2015-05-16 08:30+02;2602.0
2015-05-16 08:45+02;2834.0
2015-05-16 09:00+02;2970.0
2015-05-16 09:15+02;3125.0
2015-05-16 09:30+02;3293.0
2015-05-16 09:45+02;3449.0
2015-05-16 10:00+02;3603.0
2015-05-16 10:15+02;3597.0
2015-05-16 10:30+02;3616.0
2015-05-16 10:45+02;3754.0
2015-05-16 11:00+02;3790.0
2015-05-16 11:15+02;3909.0
2015-05-16 11:30+02;3959.0
2015-05-16 11:45+02;4057.0
2015-05-16 12:00+02;4087.0
2015-05-16 12:15+02;4138.0
2015-05-16 12:30+02;4095.0
2015-05-16 12:45+02;4035.0
2015-05-16 13:00+02;3941.0
2015-05-16 13:15+02;3768.0
2015-05-16 13:30+02;3684.0
2015-05-16 13:45+02;3540.0
2015-05-16 14:00+02;3329.0
2015-05-16 14:15+02;3114.0
2015-05-16 14:30+02;2863.0
2015-05-16 14:45+02;2677.0
2015-05-16 15:00+02;2428.0
2015-05-16 15:15+02;2225.0
2015-05-16 15:30+02;2013.0
2015-05-16 15:45+02;1835.0
2015-05-16 16:00+02;1688.0
2015-05-16 16:15+02;1531.0
2015-05-16 16:30+02;1348.0
2015-05-16 16:45+02;1162.0
2015-05-16 17:00+02;1013.0
2015-05-16 17:15+02;865.0
2015-05-16 17:30+02;702.0
2015-05-16 17:45+02;581.0
2015-05-16 18:00+02;484.0
2015-05-16 18:15+02;419.0
2015-05-16 18:30+02;342.0
2015-05-16 18:45+02;279.0
2015-05-16 19:00+02;238.0
2015-05-16 19:15+02;203.0
2015-05-16 19:30+02;154.0
2015-05-16 19:45+02;112.0
2015-05-16 20:00+02;73.0
2015-05-16 20:15+02;42.0
2015-05-16 20:30+02;19.0
2015-05-16 20:45+02;6.0
2015-05-16 21:00+02;3.0
2015-05-16 21:15+02;0.0
2015-05-16 21:30+02;0.0
2015-05-16 21:45+02;0.0
2015-05-16 22:00+02;0.0
2015-05-16 22:15+02;0.0
2015-05-16 22:30+02;0.0
2015-05-16 22:45+02;0.0
2015-05-16 23:00+02;0.0
2015-05-16 23:15+02;0.0
2015-05-16 23:30+02;0.0
2015-05-16 23:45+02;0.0
2015-05-17 00:00+02;0.0
2015-05-17 00:15+02;0.0
2015-05-17 00:30+02;0.0
2015-05-17 00:45+02;0.0
2015-05-17 01:00+02;0.0
2015-05-17 01:15+02;0.0
2015-05-17 01:30+02;0.0
2015-05-17 01:45+02;0.0
2015-05-17 02:00+02;0.0
2015-05-17 02:15+02;0.0
2015-05-17 02:30+02;0.0
2015-05-17 02:45+02;0.0
2015-05-17 03:00+02;0.0
2015-05-17 03:15+02;0.0
2015-05-17 03:30+02;0.0
2015-05-17 03:45+02;0.0
2015-05-17 04:00+02;0.0
2015-05-17 04:15+02;0.0
2015-05-17 04:30+02;0.0
2015-05-17 04:45+02;0.0
2015-05-17 05:00+02;5.0
2015-05-17 05:15+02;25.0
2015-05-17 05:30+02;66.0
2015-05-17 05:45+02;126.0
2015-05-17 06:00+02;227.0
2015-05-17 06:15+02;363.0
2015-05-17 06:30+02;534.0
2015-05-17 06:45+02;701.0
2015-05-17 07:00+02;905.0
2015-05-17 07:15+02;1127.0
2015-05-17 07:30+02;1390.0
2015-05-17 07:45+02;1633.0
2015-05-17 08:00+02;2003.0
2015-05-17 08:15+02;2283.0
2015-05-17 08:30+02;2609.0
2015-05-17 08:45+02;2876.0
2015-05-17 09:00+02;3189.0
2015-05-17 09:15+02;3478.0
2015-05-17 09:30+02;3879.0
2015-05-17 09:45+02;3979.0
2015-05-17 10:00+02;4145.0
2015-05-17 10:15+02;4253.0
2015-05-17 10:30+02;4253.0
2015-05-17 10:45+02;4361.0
2015-05-17 11:00+02;4330.0
2015-05-17 11:15+02;4276.0
2015-05-17 11:30+02;4231.0
2015-05-17 11:45+02;4134.0
2015-05-17 12:00+02;4008.0
2015-05-17 12:15+02;3956.0
2015-05-17 12:30+02;3929.0
2015-05-17 12:45+02;3810.0
2015-05-17 13:00+02;3786.0
2015-05-17 13:15+02;3510.0
2015-05-17 13:30+02;3561.0
2015-05-17 13:45+02;3554.0
2015-05-17 14:00+02;3495.0
2015-05-17 14:15+02;3359.0
2015-05-17 14:30+02;3234.0
2015-05-17 14:45+02;3027.0
2015-05-17 15:00+02;3190.0
2015-05-17 15:15+02;3069.0
2015-05-17 15:30+02;3000.0
2015-05-17 15:45+02;2814.0
2015-05-17 16:00+02;2780.0
2015-05-17 16:15+02;2698.0
2015-05-17 16:30+02;2654.0
2015-05-17 16:45+02;2437.0
2015-05-17 17:00+02;2167.0
2015-05-17 17:15+02;2109.0
2015-05-17 17:30+02;1844.0
2015-05-17 17:45+02;1669.0
2015-05-17 18:00+02;1478.0
2015-05-17 18:15+02;1338.0
2015-05-17 18:30+02;1159.0
2015-05-17 18:45+02;961.0
2015-05-17 19:00+02;824.0
2015-05-17 19:15+02;658.0
2015-05-17 19:30+02;511.0
2015-05-17 19:45+02;331.0
2015-05-17 20:00+02;196.0
2015-05-17 20:15+02;122.0
2015-05-17 20:30+02;71.0
2015-05-17 20:45+02;22.0
2015-05-17 21:00+02;9.0
2015-05-17 21:15+02;0.0
2015-05-17 21:30+02;0.0
2015-05-17 21:45+02;0.0
2015-05-17 22:00+02;0.0
2015-05-17 22:15+02;0.0
2015-05-17 22:30+02;0.0
2015-05-17 22:45+02;0.0
2015-05-17 23:00+02;0.0
2015-05-17 23:15+02;0.0
2015-05-17 23:30+02;0.0
2015-05-17 23:45+02;0.0
2015-05-18 00:00+02;0.0
2015-05-18 00:15+02;0.0
2015-05-18 00:30+02;0.0
2015-05-18 00:45+02;0.0
2015-05-18 01:00+02;0.0
2015-05-18 01:15+02;0.0
2015-05-18 01:30+02;0.0
2015-05-18 01:45+02;0.0
2015-05-18 02:00+02;0.0
2015-05-18 02:15+02;0.0
2015-05-18 02:30+02;0.0
2015-05-18 02:45+02;0.0
2015-05-18 03:00+02;0.0
2015-05-18 03:15+02;0.0
2015-05-18 03:30+02;0.0
2015-05-18 03:45+02;0.0
2015-05-18 04:00+02;0.0
2015-05-18 04:15+02;0.0
2015-05-18 04:30+02;0.0
2015-05-18 04:45+02;0.0
2015-05-18 05:00+02;7.0
2015-05-18 05:15+02;28.0
2015-05-18 05:30+02;68.0
2015-05-18 05:45+02;124.0
2015-05-18 06:00+02;219.0
2015-05-18 06:15+02;354.0
2015-05-18 06:30+02;503.0
2015-05-18 06:45+02;672.0
2015-05-18 07:00+02;839.0
2015-05-18 07:15+02;1001.0
2015-05-18 07:30+02;1196.0
2015-05-18 07:45+02;1424.0
2015-05-18 08:00+02;1561.0
2015-05-18 08:15+02;1827.0
2015-05-18 08:30+02;1973.0
2015-05-18 08:45+02;2217.0
2015-05-18 09:00+02;2430.0
2015-05-18 09:15+02;2783.0
2015-05-18 09:30+02;2935.0
2015-05-18 09:45+02;3208.0
2015-05-18 10:00+02;3512.0
2015-05-18 10:15+02;3808.0
2015-05-18 10:30+02;3917.0
2015-05-18 10:45+02;4130.0
2015-05-18 11:00+02;4152.0
2015-05-18 11:15+02;4240.0
2015-05-18 11:30+02;4389.0
2015-05-18 11:45+02;4538.0
2015-05-18 12:00+02;4454.0
2015-05-18 12:15+02;4560.0
2015-05-18 12:30+02;4580.0
2015-05-18 12:45+02;4546.0
2015-05-18 13:00+02;4638.0
2015-05-18 13:15+02;4638.0
2015-05-18 13:30+02;4635.0
2015-05-18 13:45+02;4518.0
2015-05-18 14:00+02;4528.0
2015-05-18 14:15+02;4387.0
2015-05-18 14:30+02;4297.0
2015-05-18 14:45+02;4141.0
2015-05-18 15:00+02;4052.0
2015-05-18 15:15+02;4022.0
2015-05-18 15:30+02;3868.0
2015-05-18 15:45+02;3612.0
2015-05-18 16:00+02;3444.0
2015-05-18 16:15+02;3330.0
2015-05-18 16:30+02;3067.0
2015-05-18 16:45+02;2876.0
2015-05-18 17:00+02;2643.0
2015-05-18 17:15+02;2456.0
2015-05-18 17:30+02;2222.0
2015-05-18 17:45+02;2007.0
2015-05-18 18:00+02;1756.0
2015-05-18 18:15+02;1527.0
2015-05-18 18:30+02;1265.0
2015-05-18 18:45+02;1055.0
2015-05-18 19:00+02;832.0
2015-05-18 19:15+02;649.0
2015-05-18 19:30+02;489.0
2015-05-18 19:45+02;321.0
2015-05-18 20:00+02;189.0
2015-05-18 20:15+02;111.0
2015-05-18 20:30+02;58.0
2015-05-18 20:45+02;18.0
2015-05-18 21:00+02;9.0
2015-05-18 21:15+02;0.0
2015-05-18 21:30+02;0.0
2015-05-18 21:45+02;0.0
2015-05-18 22:00+02;0.0
2015-05-18 22:15+02;0.0
2015-05-18 22:30+02;0.0
2015-05-18 22:45+02;0.0
2015-05-18 23:00+02;0.0
2015-05-18 23:15+02;0.0
2015-05-18 23:30+02;0.0
2015-05-18 23:45+02;0.0
2015-05-19 00:00+02;0.0
2015-05-19 00:15+02;0.0
2015-05-19 00:30+02;0.0
2015-05-19 00:45+02;0.0
2015-05-19 01:00+02;0.0
2015-05-19 01:15+02;0.0
2015-05-19 01:30+02;0.0
2015-05-19 01:45+02;0.0
2015-05-19 02:00+02;0.0
2015-05-19 02:15+02;0.0
2015-05-19 02:30+02;0.0
2015-05-19 02:45+02;0.0
2015-05-19 03:00+02;0.0
2015-05-19 03:15+02;0.0
2015-05-19 03:30+02;0.0
2015-05-19 03:45+02;0.0
2015-05-19 04:00+02;0.0
2015-05-19 04:15+02;0.0
2015-05-19 04:30+02;0.0
2015-05-19 04:45+02;0.0
2015-05-19 05:00+02;6.0
2015-05-19 05:15+02;25.0
2015-05-19 05:30+02;56.0
2015-05-19 05:45+02;102.0
2015-05-19 06:00+02;178.0
2015-05-19 06:15+02;308.0
2015-05-19 06:30+02;441.0
2015-05-19 06:45+02;534.0
2015-05-19 07:00+02;641.0
2015-05-19 07:15+02;751.0
2015-05-19 07:30+02;877.0
2015-05-19 07:45+02;1066.0
2015-05-19 08:00+02;1199.0
2015-05-19 08:15+02;1390.0
2015-05-19 08:30+02;1486.0
2015-05-19 08:45+02;1712.0
2015-05-19 09:00+02;1886.0
2015-05-19 09:15+02;2197.0
2015-05-19 09:30+02;2577.0
2015-05-19 09:45+02;2797.0
2015-05-19 10:00+02;2879.0
2015-05-19 10:15+02;3027.0
2015-05-19 10:30+02;3269.0
2015-05-19 10:45+02;3501.0
2015-05-19 11:00+02;3581.0
2015-05-19 11:15+02;3666.0
2015-05-19 11:30+02;3710.0
2015-05-19 11:45+02;3849.0
2015-05-19 12:00+02;3905.0
2015-05-19 12:15+02;3956.0
2015-05-19 12:30+02;3962.0
2015-05-19 12:45+02;4083.0
2015-05-19 13:00+02;4046.0
2015-05-19 13:15+02;4281.0
2015-05-19 13:30+02;4325.0
2015-05-19 13:45+02;4485.0
2015-05-19 14:00+02;4467.0
2015-05-19 14:15+02;4550.0
2015-05-19 14:30+02;4533.0
2015-05-19 14:45+02;4397.0
2015-05-19 15:00+02;4440.0
2015-05-19 15:15+02;4125.0
2015-05-19 15:30+02;3937.0
2015-05-19 15:45+02;4024.0
2015-05-19 16:00+02;3773.0
2015-05-19 16:15+02;3556.0
2015-05-19 16:30+02;3282.0
2015-05-19 16:45+02;3050.0
2015-05-19 17:00+02;2863.0
2015-05-19 17:15+02;2582.0
2015-05-19 17:30+02;2354.0
2015-05-19 17:45+02;2084.0
2015-05-19 18:00+02;1822.0
2015-05-19 18:15+02;1518.0
2015-05-19 18:30+02;1304.0
2015-05-19 18:45+02;1096.0
2015-05-19 19:00+02;849.0
2015-05-19 19:15+02;680.0
2015-05-19 19:30+02;535.0
2015-05-19 19:45+02;374.0
2015-05-19 20:00+02;235.0
2015-05-19 20:15+02;145.0
2015-05-19 20:30+02;81.0
2015-05-19 20:45+02;29.0
2015-05-19 21:00+02;12.0
2015-05-19 21:15+02;0.0
2015-05-19 21:30+02;0.0
2015-05-19 21:45+02;0.0
2015-05-19 22:00+02;0.0
2015-05-19 22:15+02;0.0
2015-05-19 22:30+02;0.0
2015-05-19 22:45+02;0.0
2015-05-19 23:00+02;0.0
2015-05-19 23:15+02;0.0
2015-05-19 23:30+02;0.0
2015-05-19 23:45+02;0.0
2015-05-20 00:00+02;0.0
2015-05-20 00:15+02;0.0
2015-05-20 00:30+02;0.0
2015-05-20 00:45+02;0.0
2015-05-20 01:00+02;0.0
2015-05-20 01:15+02;0.0
2015-05-20 01:30+02;0.0
2015-05-20 01:45+02;0.0
2015-05-20 02:00+02;0.0
2015-05-20 02:15+02;0.0
2015-05-20 02:30+02;0.0
2015-05-20 02:45+02;0.0
2015-05-20 03:00+02;0.0
2015-05-20 03:15+02;0.0
2015-05-20 03:30+02;0.0
2015-05-20 03:45+02;0.0
2015-05-20 04:00+02;0.0
2015-05-20 04:15+02;0.0
2015-05-20 04:30+02;0.0
2015-05-20 04:45+02;
2015-05-20 05:00+02;8.0
2015-05-20 05:15+02;24.0
2015-05-20 05:30+02;53.0
2015-05-20 05:45+02;95.0
2015-05-20 06:00+02;165.0
2015-05-20 06:15+02;267.0
2015-05-20 06:30+02;395.0
2015-05-20 06:45+02;521.0
2015-05-20 07:00+02;648.0
2015-05-20 07:15+02;776.0
2015-05-20 07:30+02;897.0
2015-05-20 07:45+02;1053.0
2015-05-20 08:00+02;1174.0
2015-05-20 08:15+02;1243.0
2015-05-20 08:30+02;1389.0
2015-05-20 08:45+02;1554.0
2015-05-20 09:00+02;1660.0
2015-05-20 09:15+02;1872.0
2015-05-20 09:30+02;1864.0
2015-05-20 09:45+02;2013.0
2015-05-20 10:00+02;2163.0
2015-05-20 10:15+02;2367.0
2015-05-20 10:30+02;2469.0
2015-05-20 10:45+02;2595.0
2015-05-20 11:00+02;2751.0
2015-05-20 11:15+02;2923.0
2015-05-20 11:30+02;2962.0
2015-05-20 11:45+02;3058.0
2015-05-20 12:00+02;3193.0
2015-05-20 12:15+02;3011.0
2015-05-20 12:30+02;2934.0
2015-05-20 12:45+02;2869.0
2015-05-20 13:00+02;2803.0
2015-05-20 13:15+02;2799.0
2015-05-20 13:30+02;2807.0
2015-05-20 13:45+02;2602.0
2015-05-20 14:00+02;2563.0
2015-05-20 14:15+02;2519.0
2015-05-20 14:30+02;2560.0
2015-05-20 14:45+02;2605.0
2015-05-20 15:00+02;2594.0
2015-05-20 15:15+02;2514.0
2015-05-20 15:30+02;2410.0
2015-05-20 15:45+02;2262.0
2015-05-20 16:00+02;2200.0
2015-05-20 16:15+02;2144.0
2015-05-20 16:30+02;1946.0
2015-05-20 16:45+02;1812.0
2015-05-20 17:00+02;1636.0
2015-05-20 17:15+02;1514.0
2015-05-20 17:30+02;1370.0
2015-05-20 17:45+02;1224.0
2015-05-20 18:00+02;1080.0
2015-05-20 18:15+02;991.0
2015-05-20 18:30+02;843.0
2015-05-20 18:45+02;742.0
2015-05-20 19:00+02;636.0
2015-05-20 19:15+02;513.0
2015-05-20 19:30+02;438.0
2015-05-20 19:45+02;314.0
2015-05-20 20:00+02;198.0
2015-05-20 20:15+02;123.0
2015-05-20 20:30+02;73.0
2015-05-20 20:45+02;31.0
2015-05-20 21:00+02;14.0
2015-05-20 21:15+02;0.0
2015-05-20 21:30+02;0.0
2015-05-20 21:45+02;0.0
2015-05-20 22:00+02;0.0
2015-05-20 22:15+02;0.0
2015-05-20 22:30+02;0.0
2015-05-20 22:45+02;0.0
2015-05-20 23:00+02;0.0
2015-05-20 23:15+02;0.0
2015-05-20 23:30+02;0.0
2015-05-20 23:45+02;0.0
2015-05-21 00:00+02;0.0
2015-05-21 00:15+02;0.0
2015-05-21 00:30+02;0.0
2015-05-21 00:45+02;0.0
2015-05-21 01:00+02;0.0
2015-05-21 01:15+02;0.0
2015-05-21 01:30+02;0.0
2015-05-21 01:45+02;0.0
2015-05-21 02:00+02;0.0
2015-05-21 02:15+02;0.0
2015-05-21 02:30+02;0.0
2015-05-21 02:45+02;0.0
2015-05-21 03:00+02;0.0
2015-05-21 03:15+02;0.0
2015-05-21 03:30+02;0.0
2015-05-21 03:45+02;0.0
2015-05-21 04:00+02;0.0
2015-05-21 04:15+02;0.0
2015-05-21 04:30+02;0.0
2015-05-21 04:45+02;
2015-05-21 05:00+02;12.0
2015-05-21 05:15+02;44.0
2015-05-21 05:30+02;96.0
2015-05-21 05:45+02;166.0
2015-05-21 06:00+02;268.0
2015-05-21 06:15+02;404.0
2015-05-21 06:30+02;590.0
2015-05-21 06:45+02;803.0
2015-05-21 07:00+02;1023.0
2015-05-21 07:15+02;1256.0
2015-05-21 07:30+02;1482.0
2015-05-21 07:45+02;1804.0
2015-05-21 08:00+02;2005.0
2015-05-21 08:15+02;2356.0
2015-05-21 08:30+02;2685.0
2015-05-21 08:45+02;2935.0
2015-05-21 09:00+02;3142.0
2015-05-21 09:15+02;3655.0
2015-05-21 09:30+02;3730.0
2015-05-21 09:45+02;3964.0
2015-05-21 10:00+02;4155.0
2015-05-21 10:15+02;4264.0
2015-05-21 10:30+02;4214.0
2015-05-21 10:45+02;4146.0
2015-05-21 11:00+02;4223.0
2015-05-21 11:15+02;4142.0
2015-05-21 11:30+02;4208.0
2015-05-21 11:45+02;4068.0
2015-05-21 12:00+02;4111.0
2015-05-21 12:15+02;4034.0
2015-05-21 12:30+02;3973.0
2015-05-21 12:45+02;3755.0
2015-05-21 13:00+02;3802.0
2015-05-21 13:15+02;3611.0
2015-05-21 13:30+02;3582.0
2015-05-21 13:45+02;3596.0
2015-05-21 14:00+02;3642.0
2015-05-21 14:15+02;3380.0
2015-05-21 14:30+02;3319.0
2015-05-21 14:45+02;3283.0
2015-05-21 15:00+02;3249.0
2015-05-21 15:15+02;3177.0
2015-05-21 15:30+02;3212.0
2015-05-21 15:45+02;3208.0
2015-05-21 16:00+02;2990.0
2015-05-21 16:15+02;3014.0
2015-05-21 16:30+02;2934.0
2015-05-21 16:45+02;2730.0
2015-05-21 17:00+02;2574.0
2015-05-21 17:15+02;2279.0
2015-05-21 17:30+02;2089.0
2015-05-21 17:45+02;1923.0
2015-05-21 18:00+02;1641.0
2015-05-21 18:15+02;1481.0
2015-05-21 18:30+02;1241.0
2015-05-21 18:45+02;1095.0
2015-05-21 19:00+02;918.0
2015-05-21 19:15+02;745.0
2015-05-21 19:30+02;596.0
2015-05-21 19:45+02;467.0
2015-05-21 20:00+02;305.0
2015-05-21 20:15+02;169.0
2015-05-21 20:30+02;95.0
2015-05-21 20:45+02;37.0
2015-05-21 21:00+02;15.0
2015-05-21 21:15+02;0.0
2015-05-21 21:30+02;0.0
2015-05-21 21:45+02;0.0
2015-05-21 22:00+02;0.0
2015-05-21 22:15+02;0.0
2015-05-21 22:30+02;0.0
2015-05-21 22:45+02;0.0
2015-05-21 23:00+02;0.0
2015-05-21 23:15+02;0.0
2015-05-21 23:30+02;0.0
2015-05-21 23:45+02;0.0
2015-05-22 00:00+02;0.0
2015-05-22 00:15+02;0.0
2015-05-22 00:30+02;0.0
2015-05-22 00:45+02;0.0
2015-05-22 01:00+02;0.0
2015-05-22 01:15+02;0.0
2015-05-22 01:30+02;0.0
2015-05-22 01:45+02;0.0
2015-05-22 02:00+02;0.0
2015-05-22 02:15+02;0.0
2015-05-22 02:30+02;0.0
2015-05-22 02:45+02;0.0
2015-05-22 03:00+02;0.0
2015-05-22 03:15+02;0.0
2015-05-22 03:30+02;0.0
2015-05-22 03:45+02;0.0
2015-05-22 04:00+02;0.0
2015-05-22 04:15+02;0.0
2015-05-22 04:30+02;0.0
2015-05-22 04:45+02;
2015-05-22 05:00+02;15.0
2015-05-22 05:15+02;54.0
2015-05-22 05:30+02;109.0
2015-05-22 05:45+02;188.0
2015-05-22 06:00+02;283.0
2015-05-22 06:15+02;408.0
2015-05-22 06:30+02;642.0
2015-05-22 06:45+02;904.0
2015-05-22 07:00+02;1156.0
2015-05-22 07:15+02;1383.0
2015-05-22 07:30+02;1690.0
2015-05-22 07:45+02;2021.0
2015-05-22 08:00+02;2278.0
2015-05-22 08:15+02;2549.0
2015-05-22 08:30+02;2799.0
2015-05-22 08:45+02;3128.0
2015-05-22 09:00+02;3457.0
2015-05-22 09:15+02;3704.0
2015-05-22 09:30+02;3970.0
2015-05-22 09:45+02;4140.0
2015-05-22 10:00+02;4338.0
2015-05-22 10:15+02;4508.0
2015-05-22 10:30+02;4619.0
2015-05-22 10:45+02;4741.0
2015-05-22 11:00+02;4853.0
2015-05-22 11:15+02;4702.0
2015-05-22 11:30+02;4708.0
2015-05-22 11:45+02;4592.0
2015-05-22 12:00+02;4582.0
2015-05-22 12:15+02;4718.0
2015-05-22 12:30+02;4755.0
2015-05-22 12:45+02;4706.0
2015-05-22 13:00+02;4772.0
2015-05-22 13:15+02;4800.0
2015-05-22 13:30+02;4771.0
2015-05-22 13:45+02;4639.0
2015-05-22 14:00+02;4502.0
2015-05-22 14:15+02;4555.0
2015-05-22 14:30+02;4459.0
2015-05-22 14:45+02;4194.0
2015-05-22 15:00+02;4046.0
2015-05-22 15:15+02;3858.0
2015-05-22 15:30+02;3792.0
2015-05-22 15:45+02;3563.0
2015-05-22 16:00+02;3383.0
2015-05-22 16:15+02;3245.0
2015-05-22 16:30+02;3012.0
2015-05-22 16:45+02;2847.0
2015-05-22 17:00+02;2765.0
2015-05-22 17:15+02;2496.0
2015-05-22 17:30+02;2181.0
2015-05-22 17:45+02;1965.0
2015-05-22 18:00+02;1771.0
2015-05-22 18:15+02;1525.0
2015-05-22 18:30+02;1307.0
2015-05-22 18:45+02;1079.0
2015-05-22 19:00+02;892.0
2015-05-22 19:15+02;686.0
2015-05-22 19:30+02;560.0
2015-05-22 19:45+02;417.0
2015-05-22 20:00+02;265.0
2015-05-22 20:15+02;155.0
2015-05-22 20:30+02;92.0
2015-05-22 20:45+02;39.0
2015-05-22 21:00+02;14.0
2015-05-22 21:15+02;0.0
2015-05-22 21:30+02;0.0
2015-05-22 21:45+02;0.0
2015-05-22 22:00+02;0.0
2015-05-22 22:15+02;0.0
2015-05-22 22:30+02;0.0
2015-05-22 22:45+02;0.0
2015-05-22 23:00+02;0.0
2015-05-22 23:15+02;0.0
2015-05-22 23:30+02;0.0
2015-05-22 23:45+02;0.0
2015-05-23 00:00+02;0.0
2015-05-23 00:15+02;0.0
2015-05-23 00:30+02;0.0
2015-05-23 00:45+02;0.0
2015-05-23 01:00+02;0.0
2015-05-23 01:15+02;0.0
2015-05-23 01:30+02;0.0
2015-05-23 01:45+02;0.0
2015-05-23 02:00+02;0.0
2015-05-23 02:15+02;0.0
2015-05-23 02:30+02;0.0
2015-05-23 02:45+02;0.0
2015-05-23 03:00+02;0.0
2015-05-23 03:15+02;0.0
2015-05-23 03:30+02;0.0
2015-05-23 03:45+02;0.0
2015-05-23 04:00+02;0.0
2015-05-23 04:15+02;0.0
2015-05-23 04:30+02;0.0
2015-05-23 04:45+02;0.0
2015-05-23 05:00+02;12.0
2015-05-23 05:15+02;38.0
2015-05-23 05:30+02;76.0
2015-05-23 05:45+02;134.0
2015-05-23 06:00+02;240.0
2015-05-23 06:15+02;333.0
2015-05-23 06:30+02;448.0
2015-05-23 06:45+02;552.0
2015-05-23 07:00+02;659.0
2015-05-23 07:15+02;757.0
2015-05-23 07:30+02;801.0
2015-05-23 07:45+02;919.0
2015-05-23 08:00+02;1008.0
2015-05-23 08:15+02;1148.0
2015-05-23 08:30+02;1315.0
2015-05-23 08:45+02;1500.0
2015-05-23 09:00+02;1691.0
2015-05-23 09:15+02;1884.0
2015-05-23 09:30+02;2125.0
2015-05-23 09:45+02;2256.0
2015-05-23 10:00+02;2448.0
2015-05-23 10:15+02;2603.0
2015-05-23 10:30+02;2757.0
2015-05-23 10:45+02;2888.0
2015-05-23 11:00+02;3117.0
2015-05-23 11:15+02;3246.0
2015-05-23 11:30+02;3345.0
2015-05-23 11:45+02;3443.0
2015-05-23 12:00+02;3459.0
2015-05-23 12:15+02;3317.0
2015-05-23 12:30+02;3338.0
2015-05-23 12:45+02;3313.0
2015-05-23 13:00+02;3314.0
2015-05-23 13:15+02;3294.0
2015-05-23 13:30+02;3295.0
2015-05-23 13:45+02;3263.0
2015-05-23 14:00+02;3273.0
2015-05-23 14:15+02;3247.0
2015-05-23 14:30+02;2981.0
2015-05-23 14:45+02;2860.0
2015-05-23 15:00+02;2884.0
2015-05-23 15:15+02;2720.0
2015-05-23 15:30+02;2616.0
2015-05-23 15:45+02;2401.0
2015-05-23 16:00+02;2240.0
2015-05-23 16:15+02;2066.0
2015-05-23 16:30+02;1956.0
2015-05-23 16:45+02;1755.0
2015-05-23 17:00+02;1600.0
2015-05-23 17:15+02;1548.0
2015-05-23 17:30+02;1414.0
2015-05-23 17:45+02;1293.0
2015-05-23 18:00+02;1120.0
2015-05-23 18:15+02;990.0
2015-05-23 18:30+02;869.0
2015-05-23 18:45+02;725.0
2015-05-23 19:00+02;590.0
2015-05-23 19:15+02;462.0
2015-05-23 19:30+02;367.0
2015-05-23 19:45+02;266.0
2015-05-23 20:00+02;173.0
2015-05-23 20:15+02;110.0
2015-05-23 20:30+02;63.0
2015-05-23 20:45+02;28.0
2015-05-23 21:00+02;13.0
2015-05-23 21:15+02;0.0
2015-05-23 21:30+02;0.0
2015-05-23 21:45+02;0.0
2015-05-23 22:00+02;0.0
2015-05-23 22:15+02;0.0
2015-05-23 22:30+02;0.0
2015-05-23 22:45+02;0.0
2015-05-23 23:00+02;0.0
2015-05-23 23:15+02;0.0
2015-05-23 23:30+02;0.0
2015-05-23 23:45+02;0.0
2015-05-24 00:00+02;0.0
2015-05-24 00:15+02;0.0
2015-05-24 00:30+02;0.0
2015-05-24 00:45+02;0.0
2015-05-24 01:00+02;0.0
2015-05-24 01:15+02;0.0
2015-05-24 01:30+02;0.0
2015-05-24 01:45+02;0.0
2015-05-24 02:00+02;0.0
2015-05-24 02:15+02;0.0
2015-05-24 02:30+02;0.0
2015-05-24 02:45+02;0.0
2015-05-24 03:00+02;0.0
2015-05-24 03:15+02;0.0
2015-05-24 03:30+02;0.0
2015-05-24 03:45+02;0.0
2015-05-24 04:00+02;0.0
2015-05-24 04:15+02;0.0
2015-05-24 04:30+02;0.0
2015-05-24 04:45+02;0.0
2015-05-24 05:00+02;14.0
2015-05-24 05:15+02;48.0
2015-05-24 05:30+02;96.0
2015-05-24 05:45+02;161.0
2015-05-24 06:00+02;245.0
2015-05-24 06:15+02;349.0
2015-05-24 06:30+02;501.0
2015-05-24 06:45+02;684.0
2015-05-24 07:00+02;878.0
2015-05-24 07:15+02;1044.0
2015-05-24 07:30+02;1353.0
2015-05-24 07:45+02;1501.0
2015-05-24 08:00+02;1682.0
2015-05-24 08:15+02;1963.0
2015-05-24 08:30+02;2163.0
2015-05-24 08:45+02;2414.0
2015-05-24 09:00+02;2648.0
2015-05-24 09:15+02;2954.0
2015-05-24 09:30+02;3327.0
2015-05-24 09:45+02;3483.0
2015-05-24 10:00+02;3726.0
2015-05-24 10:15+02;3881.0
2015-05-24 10:30+02;4074.0
2015-05-24 10:45+02;4183.0
2015-05-24 11:00+02;4375.0
2015-05-24 11:15+02;4556.0
2015-05-24 11:30+02;4633.0
2015-05-24 11:45+02;4764.0
2015-05-24 12:00+02;4865.0
2015-05-24 12:15+02;4914.0
2015-05-24 12:30+02;4965.0
2015-05-24 12:45+02;4930.0
2015-05-24 13:00+02;4859.0
2015-05-24 13:15+02;4868.0
2015-05-24 13:30+02;4895.0
2015-05-24 13:45+02;4945.0
2015-05-24 14:00+02;4885.0
2015-05-24 14:15+02;4759.0
2015-05-24 14:30+02;4698.0
2015-05-24 14:45+02;4601.0
2015-05-24 15:00+02;4571.0
2015-05-24 15:15+02;4464.0
2015-05-24 15:30+02;4271.0
2015-05-24 15:45+02;4134.0
2015-05-24 16:00+02;4012.0
2015-05-24 16:15+02;3874.0
2015-05-24 16:30+02;3683.0
2015-05-24 16:45+02;3443.0
2015-05-24 17:00+02;3161.0
2015-05-24 17:15+02;2945.0
2015-05-24 17:30+02;2613.0
2015-05-24 17:45+02;2370.0
2015-05-24 18:00+02;2075.0
2015-05-24 18:15+02;1779.0
2015-05-24 18:30+02;1527.0
2015-05-24 18:45+02;1240.0
2015-05-24 19:00+02;987.0
2015-05-24 19:15+02;767.0
2015-05-24 19:30+02;616.0
2015-05-24 19:45+02;493.0
2015-05-24 20:00+02;337.0
2015-05-24 20:15+02;189.0
2015-05-24 20:30+02;103.0
2015-05-24 20:45+02;43.0
2015-05-24 21:00+02;16.0
2015-05-24 21:15+02;0.0
2015-05-24 21:30+02;0.0
2015-05-24 21:45+02;0.0
2015-05-24 22:00+02;0.0
2015-05-24 22:15+02;0.0
2015-05-24 22:30+02;0.0
2015-05-24 22:45+02;0.0
2015-05-24 23:00+02;0.0
2015-05-24 23:15+02;0.0
2015-05-24 23:30+02;0.0
2015-05-24 23:45+02;0.0
2015-05-25 00:00+02;0.0
2015-05-25 00:15+02;0.0
2015-05-25 00:30+02;0.0
2015-05-25 00:45+02;0.0
2015-05-25 01:00+02;0.0
2015-05-25 01:15+02;0.0
2015-05-25 01:30+02;0.0
2015-05-25 01:45+02;0.0
2015-05-25 02:00+02;0.0
2015-05-25 02:15+02;0.0
2015-05-25 02:30+02;0.0
2015-05-25 02:45+02;0.0
2015-05-25 03:00+02;0.0
2015-05-25 03:15+02;0.0
2015-05-25 03:30+02;0.0
2015-05-25 03:45+02;0.0
2015-05-25 04:00+02;0.0
2015-05-25 04:15+02;0.0
2015-05-25 04:30+02;0.0
2015-05-25 04:45+02;0.0
2015-05-25 05:00+02;14.0
2015-05-25 05:15+02;44.0
2015-05-25 05:30+02;85.0
2015-05-25 05:45+02;142.0
2015-05-25 06:00+02;242.0
2015-05-25 06:15+02;390.0
2015-05-25 06:30+02;511.0
2015-05-25 06:45+02;635.0
2015-05-25 07:00+02;783.0
2015-05-25 07:15+02;941.0
2015-05-25 07:30+02;1160.0
2015-05-25 07:45+02;1320.0
2015-05-25 08:00+02;1521.0
2015-05-25 08:15+02;1658.0
2015-05-25 08:30+02;1888.0
2015-05-25 08:45+02;2048.0
2015-05-25 09:00+02;2221.0
2015-05-25 09:15+02;2426.0
2015-05-25 09:30+02;2619.0
2015-05-25 09:45+02;2868.0
2015-05-25 10:00+02;3113.0
2015-05-25 10:15+02;3226.0
2015-05-25 10:30+02;3315.0
2015-05-25 10:45+02;3357.0
2015-05-25 11:00+02;3422.0
2015-05-25 11:15+02;3395.0
2015-05-25 11:30+02;3348.0
2015-05-25 11:45+02;3498.0
2015-05-25 12:00+02;3454.0
2015-05-25 12:15+02;3472.0
2015-05-25 12:30+02;3590.0
2015-05-25 12:45+02;3550.0
2015-05-25 13:00+02;3370.0
2015-05-25 13:15+02;3195.0
2015-05-25 13:30+02;3232.0
2015-05-25 13:45+02;3032.0
2015-05-25 14:00+02;2929.0
2015-05-25 14:15+02;2824.0
2015-05-25 14:30+02;2664.0
2015-05-25 14:45+02;2418.0
2015-05-25 15:00+02;2368.0
2015-05-25 15:15+02;2258.0
2015-05-25 15:30+02;2234.0
2015-05-25 15:45+02;2119.0
2015-05-25 16:00+02;2112.0
2015-05-25 16:15+02;1938.0
2015-05-25 16:30+02;1803.0
2015-05-25 16:45+02;1687.0
2015-05-25 17:00+02;1612.0
2015-05-25 17:15+02;1527.0
2015-05-25 17:30+02;1400.0
2015-05-25 17:45+02;1250.0
2015-05-25 18:00+02;1128.0
2015-05-25 18:15+02;960.0
2015-05-25 18:30+02;845.0
2015-05-25 18:45+02;760.0
2015-05-25 19:00+02;644.0
2015-05-25 19:15+02;508.0
2015-05-25 19:30+02;390.0
2015-05-25 19:45+02;288.0
2015-05-25 20:00+02;178.0
2015-05-25 20:15+02;116.0
2015-05-25 20:30+02;72.0
2015-05-25 20:45+02;35.0
2015-05-25 21:00+02;13.0
2015-05-25 21:15+02;8.0
2015-05-25 21:30+02;0.0
2015-05-25 21:45+02;0.0
2015-05-25 22:00+02;0.0
2015-05-25 22:15+02;0.0
2015-05-25 22:30+02;0.0
2015-05-25 22:45+02;0.0
2015-05-25 23:00+02;0.0
2015-05-25 23:15+02;0.0
2015-05-25 23:30+02;0.0
2015-05-25 23:45+02;
2015-05-26 00:00+02;
2015-05-26 00:15+02;
2015-05-26 00:30+02;
2015-05-26 00:45+02;
2015-05-26 01:00+02;
2015-05-26 01:15+02;
2015-05-26 01:30+02;
2015-05-26 01:45+02;
2015-05-26 02:00+02;
2015-05-26 02:15+02;
2015-05-26 02:30+02;
2015-05-26 02:45+02;
2015-05-26 03:00+02;
2015-05-26 03:15+02;
2015-05-26 03:30+02;
2015-05-26 03:45+02;
2015-05-26 04:00+02;
2015-05-26 04:15+02;
2015-05-26 04:30+02;
2015-05-26 04:45+02;
2015-05-26 05:00+02;
2015-05-26 05:15+02;
2015-05-26 05:30+02;
2015-05-26 05:45+02;
2015-05-26 06:00+02;
2015-05-26 06:15+02;
2015-05-26 06:30+02;
2015-05-26 06:45+02;
2015-05-26 07:00+02;
2015-05-26 07:15+02;
2015-05-26 07:30+02;
2015-05-26 07:45+02;
2015-05-26 08:00+02;
2015-05-26 08:15+02;
2015-05-26 08:30+02;
2015-05-26 08:45+02;
2015-05-26 09:00+02;
2015-05-26 09:15+02;
2015-05-26 09:30+02;
2015-05-26 09:45+02;
2015-05-26 10:00+02;
2015-05-26 10:15+02;
2015-05-26 10:30+02;
2015-05-26 10:45+02;
2015-05-26 11:00+02;
2015-05-26 11:15+02;
2015-05-26 11:30+02;
2015-05-26 11:45+02;
2015-05-26 12:00+02;
2015-05-26 12:15+02;
2015-05-26 12:30+02;
2015-05-26 12:45+02;
2015-05-26 13:00+02;
2015-05-26 13:15+02;
2015-05-26 13:30+02;
2015-05-26 13:45+02;
2015-05-26 14:00+02;
2015-05-26 14:15+02;
2015-05-26 14:30+02;
2015-05-26 14:45+02;
2015-05-26 15:00+02;
2015-05-26 15:15+02;
2015-05-26 15:30+02;
2015-05-26 15:45+02;
2015-05-26 16:00+02;
2015-05-26 16:15+02;2125.0
2015-05-26 16:30+02;2022.0
2015-05-26 16:45+02;1903.0
2015-05-26 17:00+02;1769.0
2015-05-26 17:15+02;1674.0
2015-05-26 17:30+02;1442.0
2015-05-26 17:45+02;1359.0
2015-05-26 18:00+02;1183.0
2015-05-26 18:15+02;1077.0
2015-05-26 18:30+02;984.0
2015-05-26 18:45+02;856.0
2015-05-26 19:00+02;728.0
2015-05-26 19:15+02;564.0
2015-05-26 19:30+02;443.0
2015-05-26 19:45+02;333.0
2015-05-26 20:00+02;211.0
2015-05-26 20:15+02;125.0
2015-05-26 20:30+02;75.0
2015-05-26 20:45+02;40.0
2015-05-26 21:00+02;16.0
2015-05-26 21:15+02;9.0
2015-05-26 21:30+02;0.0
2015-05-26 21:45+02;0.0
2015-05-26 22:00+02;0.0
2015-05-26 22:15+02;0.0
2015-05-26 22:30+02;0.0
2015-05-26 22:45+02;0.0
2015-05-26 23:00+02;0.0
2015-05-26 23:15+02;0.0
2015-05-26 23:30+02;0.0
2015-05-26 23:45+02;0.0
2015-05-27 00:00+02;0.0
2015-05-27 00:15+02;0.0
2015-05-27 00:30+02;0.0
2015-05-27 00:45+02;0.0
2015-05-27 01:00+02;0.0
2015-05-27 01:15+02;0.0
2015-05-27 01:30+02;0.0
2015-05-27 01:45+02;0.0
2015-05-27 02:00+02;0.0
2015-05-27 02:15+02;0.0
2015-05-27 02:30+02;0.0
2015-05-27 02:45+02;0.0
2015-05-27 03:00+02;0.0
2015-05-27 03:15+02;0.0
2015-05-27 03:30+02;0.0
2015-05-27 03:45+02;0.0
2015-05-27 04:00+02;0.0
2015-05-27 04:15+02;0.0
2015-05-27 04:30+02;0.0
2015-05-27 04:45+02;1.0
2015-05-27 05:00+02;23.0
2015-05-27 05:15+02;59.0
2015-05-27 05:30+02;105.0
2015-05-27 05:45+02;175.0
2015-05-27 06:00+02;282.0
2015-05-27 06:15+02;386.0
2015-05-27 06:30+02;509.0
2015-05-27 06:45+02;639.0
2015-05-27 07:00+02;772.0
2015-05-27 07:15+02;876.0
2015-05-27 07:30+02;1030.0
2015-05-27 07:45+02;1164.0
2015-05-27 08:00+02;1312.0
2015-05-27 08:15+02;1492.0
2015-05-27 08:30+02;1597.0
2015-05-27 08:45+02;1754.0
2015-05-27 09:00+02;1934.0
2015-05-27 09:15+02;2121.0
2015-05-27 09:30+02;2223.0
2015-05-27 09:45+02;2289.0
2015-05-27 10:00+02;2430.0
2015-05-27 10:15+02;2445.0
2015-05-27 10:30+02;2321.0
2015-05-27 10:45+02;2119.0
2015-05-27 11:00+02;2031.0
2015-05-27 11:15+02;2092.0
2015-05-27 11:30+02;2097.0
2015-05-27 11:45+02;2084.0
2015-05-27 12:00+02;2128.0
2015-05-27 12:15+02;2222.0
2015-05-27 12:30+02;2299.0
2015-05-27 12:45+02;2314.0
2015-05-27 13:00+02;2317.0
2015-05-27 13:15+02;2315.0
2015-05-27 13:30+02;2248.0
2015-05-27 13:45+02;2226.0
2015-05-27 14:00+02;2268.0
2015-05-27 14:15+02;2328.0
2015-05-27 14:30+02;2301.0
2015-05-27 14:45+02;2159.0
2015-05-27 15:00+02;2145.0
2015-05-27 15:15+02;2104.0
2015-05-27 15:30+02;2024.0
2015-05-27 15:45+02;1932.0
2015-05-27 16:00+02;1889.0
2015-05-27 16:15+02;1658.0
2015-05-27 16:30+02;1568.0
2015-05-27 16:45+02;1438.0
2015-05-27 17:00+02;1343.0
2015-05-27 17:15+02;1288.0
2015-05-27 17:30+02;1152.0
2015-05-27 17:45+02;1045.0
2015-05-27 18:00+02;952.0
2015-05-27 18:15+02;830.0
2015-05-27 18:30+02;687.0
2015-05-27 18:45+02;596.0
2015-05-27 19:00+02;515.0
2015-05-27 19:15+02;443.0
2015-05-27 19:30+02;344.0
2015-05-27 19:45+02;262.0
2015-05-27 20:00+02;178.0
2015-05-27 20:15+02;108.0
2015-05-27 20:30+02;67.0
2015-05-27 20:45+02;38.0
2015-05-27 21:00+02;17.0
2015-05-27 21:15+02;9.0
2015-05-27 21:30+02;0.0
2015-05-27 21:45+02;0.0
2015-05-27 22:00+02;0.0
2015-05-27 22:15+02;0.0
2015-05-27 22:30+02;0.0
2015-05-27 22:45+02;0.0
2015-05-27 23:00+02;0.0
2015-05-27 23:15+02;0.0
2015-05-27 23:30+02;0.0
2015-05-27 23:45+02;0.0
2015-05-28 00:00+02;0.0
2015-05-28 00:15+02;0.0
2015-05-28 00:30+02;0.0
2015-05-28 00:45+02;0.0
2015-05-28 01:00+02;0.0
2015-05-28 01:15+02;0.0
2015-05-28 01:30+02;0.0
2015-05-28 01:45+02;0.0
2015-05-28 02:00+02;0.0
2015-05-28 02:15+02;0.0
2015-05-28 02:30+02;0.0
2015-05-28 02:45+02;0.0
2015-05-28 03:00+02;0.0
2015-05-28 03:15+02;0.0
2015-05-28 03:30+02;0.0
2015-05-28 03:45+02;0.0
2015-05-28 04:00+02;0.0
2015-05-28 04:15+02;0.0
2015-05-28 04:30+02;0.0
2015-05-28 04:45+02;1.0
2015-05-28 05:00+02;15.0
2015-05-28 05:15+02;48.0
2015-05-28 05:30+02;90.0
2015-05-28 05:45+02;152.0
2015-05-28 06:00+02;265.0
2015-05-28 06:15+02;482.0
2015-05-28 06:30+02;656.0
2015-05-28 06:45+02;834.0
2015-05-28 07:00+02;1055.0
2015-05-28 07:15+02;1244.0
2015-05-28 07:30+02;1400.0
2015-05-28 07:45+02;1643.0
2015-05-28 08:00+02;1945.0
2015-05-28 08:15+02;2146.0
2015-05-28 08:30+02;2393.0
2015-05-28 08:45+02;2623.0
2015-05-28 09:00+02;2821.0
2015-05-28 09:15+02;2996.0
2015-05-28 09:30+02;3140.0
2015-05-28 09:45+02;3322.0
2015-05-28 10:00+02;3476.0
2015-05-28 10:15+02;3620.0
2015-05-28 10:30+02;3685.0
2015-05-28 10:45+02;3868.0
2015-05-28 11:00+02;3949.0
2015-05-28 11:15+02;3937.0
2015-05-28 11:30+02;4066.0
2015-05-28 11:45+02;4247.0
2015-05-28 12:00+02;4243.0
2015-05-28 12:15+02;4310.0
2015-05-28 12:30+02;4273.0
2015-05-28 12:45+02;4289.0
2015-05-28 13:00+02;4206.0
2015-05-28 13:15+02;4186.0
2015-05-28 13:30+02;4069.0
2015-05-28 13:45+02;3990.0
2015-05-28 14:00+02;4149.0
2015-05-28 14:15+02;4169.0
2015-05-28 14:30+02;4089.0
2015-05-28 14:45+02;3887.0
2015-05-28 15:00+02;3734.0
2015-05-28 15:15+02;3601.0
2015-05-28 15:30+02;3412.0
2015-05-28 15:45+02;3233.0
2015-05-28 16:00+02;3030.0
2015-05-28 16:15+02;2847.0
2015-05-28 16:30+02;2653.0
2015-05-28 16:45+02;2424.0
2015-05-28 17:00+02;2193.0
2015-05-28 17:15+02;1974.0
2015-05-28 17:30+02;1765.0
2015-05-28 17:45+02;1573.0
2015-05-28 18:00+02;1385.0
2015-05-28 18:15+02;
2015-05-28 18:30+02;
2015-05-28 18:45+02;
2015-05-28 19:00+02;
2015-05-28 19:15+02;
2015-05-28 19:30+02;
2015-05-28 19:45+02;
2015-05-28 20:00+02;
2015-05-28 20:15+02;
2015-05-28 20:30+02;
2015-05-28 20:45+02;
2015-05-28 21:00+02;
2015-05-28 21:15+02;
2015-05-28 21:30+02;
2015-05-28 21:45+02;
2015-05-28 22:00+02;
2015-05-28 22:15+02;
2015-05-28 22:30+02;
2015-05-28 22:45+02;
2015-05-28 23:00+02;
2015-05-28 23:15+02;
2015-05-28 23:30+02;
2015-05-28 23:45+02;
2015-05-29 00:00+02;
2015-05-29 00:15+02;
2015-05-29 00:30+02;
2015-05-29 00:45+02;
2015-05-29 01:00+02;
2015-05-29 01:15+02;
2015-05-29 01:30+02;
2015-05-29 01:45+02;
2015-05-29 02:00+02;
2015-05-29 02:15+02;
2015-05-29 02:30+02;
2015-05-29 02:45+02;
2015-05-29 03:00+02;
2015-05-29 03:15+02;
2015-05-29 03:30+02;
2015-05-29 03:45+02;
2015-05-29 04:00+02;
2015-05-29 04:15+02;
2015-05-29 04:30+02;
2015-05-29 04:45+02;
2015-05-29 05:00+02;
2015-05-29 05:15+02;
2015-05-29 05:30+02;
2015-05-29 05:45+02;
2015-05-29 06:00+02;
2015-05-29 06:15+02;
2015-05-29 06:30+02;
2015-05-29 06:45+02;
2015-05-29 07:00+02;
2015-05-29 07:15+02;
2015-05-29 07:30+02;
2015-05-29 07:45+02;
2015-05-29 08:00+02;
2015-05-29 08:15+02;
2015-05-29 08:30+02;
2015-05-29 08:45+02;
2015-05-29 09:00+02;
2015-05-29 09:15+02;
2015-05-29 09:30+02;
2015-05-29 09:45+02;
2015-05-29 10:00+02;
2015-05-29 10:15+02;
2015-05-29 10:30+02;
2015-05-29 10:45+02;
2015-05-29 11:00+02;
2015-05-29 11:15+02;
2015-05-29 11:30+02;
2015-05-29 11:45+02;
2015-05-29 12:00+02;
2015-05-29 12:15+02;
2015-05-29 12:30+02;
2015-05-29 12:45+02;
2015-05-29 13:00+02;
2015-05-29 13:15+02;
2015-05-29 13:30+02;
2015-05-29 13:45+02;
2015-05-29 14:00+02;
2015-05-29 14:15+02;
2015-05-29 14:30+02;
2015-05-29 14:45+02;
2015-05-29 15:00+02;
2015-05-29 15:15+02;
2015-05-29 15:30+02;
2015-05-29 15:45+02;
2015-05-29 16:00+02;
2015-05-29 16:15+02;
2015-05-29 16:30+02;
2015-05-29 16:45+02;
2015-05-29 17:00+02;
2015-05-29 17:15+02;
2015-05-29 17:30+02;
2015-05-29 17:45+02;
2015-05-29 18:00+02;
2015-05-29 18:15+02;
2015-05-29 18:30+02;
2015-05-29 18:45+02;
2015-05-29 19:00+02;
2015-05-29 19:15+02;
2015-05-29 19:30+02;
2015-05-29 19:45+02;
2015-05-29 20:00+02;
2015-05-29 20:15+02;
2015-05-29 20:30+02;
2015-05-29 20:45+02;
2015-05-29 21:00+02;
2015-05-29 21:15+02;
2015-05-29 21:30+02;
2015-05-29 21:45+02;
2015-05-29 22:00+02;
2015-05-29 22:15+02;
2015-05-29 22:30+02;
2015-05-29 22:45+02;
2015-05-29 23:00+02;
2015-05-29 23:15+02;
2015-05-29 23:30+02;
2015-05-29 23:45+02;
2015-05-30 00:00+02;
2015-05-30 00:15+02;
2015-05-30 00:30+02;
2015-05-30 00:45+02;
2015-05-30 01:00+02;
2015-05-30 01:15+02;
2015-05-30 01:30+02;
2015-05-30 01:45+02;
2015-05-30 02:00+02;
2015-05-30 02:15+02;
2015-05-30 02:30+02;
2015-05-30 02:45+02;
2015-05-30 03:00+02;
2015-05-30 03:15+02;
2015-05-30 03:30+02;
2015-05-30 03:45+02;
2015-05-30 04:00+02;
2015-05-30 04:15+02;
2015-05-30 04:30+02;
2015-05-30 04:45+02;
2015-05-30 05:00+02;
2015-05-30 05:15+02;
2015-05-30 05:30+02;
2015-05-30 05:45+02;
2015-05-30 06:00+02;
2015-05-30 06:15+02;
2015-05-30 06:30+02;
2015-05-30 06:45+02;
2015-05-30 07:00+02;
2015-05-30 07:15+02;
2015-05-30 07:30+02;
2015-05-30 07:45+02;
2015-05-30 08:00+02;
2015-05-30 08:15+02;
2015-05-30 08:30+02;
2015-05-30 08:45+02;
2015-05-30 09:00+02;
2015-05-30 09:15+02;
2015-05-30 09:30+02;
2015-05-30 09:45+02;
2015-05-30 10:00+02;
2015-05-30 10:15+02;
2015-05-30 10:30+02;
2015-05-30 10:45+02;
2015-05-30 11:00+02;
2015-05-30 11:15+02;
2015-05-30 11:30+02;
2015-05-30 11:45+02;
2015-05-30 12:00+02;
2015-05-30 12:15+02;
2015-05-30 12:30+02;
2015-05-30 12:45+02;
2015-05-30 13:00+02;
2015-05-30 13:15+02;
2015-05-30 13:30+02;
2015-05-30 13:45+02;
2015-05-30 14:00+02;
2015-05-30 14:15+02;
2015-05-30 14:30+02;
2015-05-30 14:45+02;
2015-05-30 15:00+02;
2015-05-30 15:15+02;
2015-05-30 15:30+02;
2015-05-30 15:45+02;
2015-05-30 16:00+02;
2015-05-30 16:15+02;
2015-05-30 16:30+02;
2015-05-30 16:45+02;
2015-05-30 17:00+02;
2015-05-30 17:15+02;
2015-05-30 17:30+02;
2015-05-30 17:45+02;
2015-05-30 18:00+02;
2015-05-30 18:15+02;
2015-05-30 18:30+02;
2015-05-30 18:45+02;
2015-05-30 19:00+02;
2015-05-30 19:15+02;
2015-05-30 19:30+02;
2015-05-30 19:45+02;
2015-05-30 20:00+02;
2015-05-30 20:15+02;
2015-05-30 20:30+02;
2015-05-30 20:45+02;
2015-05-30 21:00+02;
2015-05-30 21:15+02;
2015-05-30 21:30+02;
2015-05-30 21:45+02;
2015-05-30 22:00+02;
2015-05-30 22:15+02;
2015-05-30 22:30+02;
2015-05-30 22:45+02;
2015-05-30 23:00+02;
2015-05-30 23:15+02;
2015-05-30 23:30+02;
2015-05-30 23:45+02;
2015-05-31 00:00+02;
2015-05-31 00:15+02;
2015-05-31 00:30+02;
2015-05-31 00:45+02;
2015-05-31 01:00+02;
2015-05-31 01:15+02;
2015-05-31 01:30+02;
2015-05-31 01:45+02;
2015-05-31 02:00+02;
2015-05-31 02:15+02;
2015-05-31 02:30+02;
2015-05-31 02:45+02;
2015-05-31 03:00+02;
2015-05-31 03:15+02;
2015-05-31 03:30+02;
2015-05-31 03:45+02;
2015-05-31 04:00+02;
2015-05-31 04:15+02;
2015-05-31 04:30+02;
2015-05-31 04:45+02;
2015-05-31 05:00+02;
2015-05-31 05:15+02;
2015-05-31 05:30+02;
2015-05-31 05:45+02;
2015-05-31 06:00+02;
2015-05-31 06:15+02;
2015-05-31 06:30+02;
2015-05-31 06:45+02;
2015-05-31 07:00+02;
2015-05-31 07:15+02;
2015-05-31 07:30+02;
2015-05-31 07:45+02;
2015-05-31 08:00+02;
2015-05-31 08:15+02;
2015-05-31 08:30+02;
2015-05-31 08:45+02;
2015-05-31 09:00+02;
2015-05-31 09:15+02;
2015-05-31 09:30+02;
2015-05-31 09:45+02;
2015-05-31 10:00+02;
2015-05-31 10:15+02;
2015-05-31 10:30+02;
2015-05-31 10:45+02;
2015-05-31 11:00+02;
2015-05-31 11:15+02;
2015-05-31 11:30+02;
2015-05-31 11:45+02;
2015-05-31 12:00+02;
2015-05-31 12:15+02;
2015-05-31 12:30+02;
2015-05-31 12:45+02;
2015-05-31 13:00+02;
2015-05-31 13:15+02;
2015-05-31 13:30+02;
2015-05-31 13:45+02;
2015-05-31 14:00+02;
2015-05-31 14:15+02;
2015-05-31 14:30+02;
2015-05-31 14:45+02;
2015-05-31 15:00+02;
2015-05-31 15:15+02;
2015-05-31 15:30+02;
2015-05-31 15:45+02;
2015-05-31 16:00+02;
2015-05-31 16:15+02;
2015-05-31 16:30+02;
2015-05-31 16:45+02;
2015-05-31 17:00+02;
2015-05-31 17:15+02;
2015-05-31 17:30+02;
2015-05-31 17:45+02;
2015-05-31 18:00+02;
2015-05-31 18:15+02;
2015-05-31 18:30+02;
2015-05-31 18:45+02;
2015-05-31 19:00+02;
2015-05-31 19:15+02;
2015-05-31 19:30+02;
2015-05-31 19:45+02;
2015-05-31 20:00+02;
2015-05-31 20:15+02;
2015-05-31 20:30+02;
2015-05-31 20:45+02;
2015-05-31 21:00+02;
2015-05-31 21:15+02;
2015-05-31 21:30+02;
2015-05-31 21:45+02;
2015-05-31 22:00+02;
2015-05-31 22:15+02;
2015-05-31 22:30+02;
2015-05-31 22:45+02;
2015-05-31 23:00+02;
2015-05-31 23:15+02;
2015-05-31 23:30+02;
2015-05-31 23:45+02;
2015-06-01 00:00+02;
